[+] Containers:
 |- [+] Container: /Game/FirstPerson/Maps/FirstPersonMap
 |   |- [+] ActorDescs:
 |   |   |- Guid:03BC75644B13AF8753681D91FA3DC026 BaseClass: NativeClass:/Script/Engine.StaticMeshActor Name:SM_Vcr_UAID_E88088BA760EF9B301_2032675051 Label:SM_Vcr SpatiallyLoaded:1 Bounds:IsValid=true, Min=(X=306.477 Y=173.608 Z=87.273), Max=(X=399.901 Y=327.624 Z=198.423) RuntimeGrid:None EditorOnly:0 RuntimeOnly:0 HLODRelevant:1 ListedInSceneOutliner:1 IsMainWorldOnly:0 FolderPath:Props
 |   |   |- Guid:0A945D5C4F04323EA90A18B8719516CD BaseClass: NativeClass:/Script/Engine.StaticMeshActor Name:SM_Standing_Lamp_UAID_E88088BA760EF9B301_2032674048 Label:SM_Standing_Lamp SpatiallyLoaded:1 Bounds:IsValid=true, Min=(X=316.159 Y=-336.589 Z=-0.868), Max=(X=399.989 Y=-157.411 Z=247.501) RuntimeGrid:None EditorOnly:0 RuntimeOnly:0 HLODRelevant:1 ListedInSceneOutliner:1 IsMainWorldOnly:0 FolderPath:Props
 |   |   |- Guid:0B790C204FFAF42243A664943B5E926F BaseClass: NativeClass:/Script/Engine.StaticMeshActor Name:SM_Notebook2_UAID_E88088BA760EF9B301_2032685073 Label:SM_Notebook2 SpatiallyLoaded:1 Bounds:IsValid=true, Min=(X=-153.103 Y=-379.794 Z=132.516), Max=(X=-74.679 Y=-301.661 Z=138.196) RuntimeGrid:None EditorOnly:0 RuntimeOnly:0 HLODRelevant:1 ListedInSceneOutliner:1 IsMainWorldOnly:0 FolderPath:Props
 |   |   |- Guid:13B1448B4F60EC39AE8532847B75D32D BaseClass: NativeClass:/Script/Engine.StaticMeshActor Name:SM_Bulletin_Board_A_UAID_E88088BA760EF9B301_2032684068 Label:SM_Bulletin_Board_A SpatiallyLoaded:1 Bounds:IsValid=true, Min=(X=-23.395 Y=-395.844 Z=188.425), Max=(X=94.423 Y=-370.421 Z=341.301) RuntimeGrid:None EditorOnly:0 RuntimeOnly:0 HLODRelevant:1 ListedInSceneOutliner:1 IsMainWorldOnly:0 FolderPath:Props
 |   |   |- Guid:13DB0A6B4FCB5DA08CCD9B93DFE2553B BaseClass: NativeClass:/Script/Engine.StaticMeshActor Name:SM_Book_C_UAID_E88088BA760EF9B301_2032686076 Label:SM_Book_C SpatiallyLoaded:1 Bounds:IsValid=true, Min=(X=-385.535 Y=321.015 Z=129.271), Max=(X=-328.427 Y=389.255 Z=137.527) RuntimeGrid:None EditorOnly:0 RuntimeOnly:0 HLODRelevant:1 ListedInSceneOutliner:1 IsMainWorldOnly:0 FolderPath:Props
 |   |   |- Guid:149EF73740A01BCA9F4F989ECDFDCB8E BaseClass: NativeClass:/Script/Engine.AmbientSound Name:AmbientSound_UAID_E88088BA760EF4B301_2104260131 Label:SolidOrchestralFour_Cue SpatiallyLoaded:1 Bounds:IsValid=true, Min=(X=130.000 Y=-810.000 Z=100.000), Max=(X=130.000 Y=-810.000 Z=100.000) RuntimeGrid:None EditorOnly:0 RuntimeOnly:0 HLODRelevant:0 ListedInSceneOutliner:1 IsMainWorldOnly:0
 |   |   |- Guid:151EE682466F745F92C57BAE817B7811 BaseClass: NativeClass:/Script/Engine.StaticMeshActor Name:SM_Hallway_Floor_UAID_E88088BA760EF9B301_2032665031 Label:SM_Hallway_Floor SpatiallyLoaded:1 Bounds:IsValid=true, Min=(X=-432.276 Y=-1158.499 Z=-0.000), Max=(X=817.125 Y=-518.914 Z=-0.000) RuntimeGrid:None EditorOnly:0 RuntimeOnly:0 HLODRelevant:1 ListedInSceneOutliner:1 IsMainWorldOnly:0 FolderPath:Structures
 |   |   |- Guid:1640EBEA45ECC7DD9D3833A17A6BA45C BaseClass: NativeClass:/Script/Engine.StaticMeshActor Name:SM_Office_Ceiling_Light_UAID_E88088BA760EF9B301_2032668036 Label:SM_Office_Ceiling_Light SpatiallyLoaded:1 Bounds:IsValid=true, Min=(X=-60.289 Y=-58.508 Z=397.381), Max=(X=57.670 Y=59.451 Z=441.619) RuntimeGrid:None EditorOnly:0 RuntimeOnly:0 HLODRelevant:0 ListedInSceneOutliner:1 IsMainWorldOnly:0 FolderPath:Structures
 |   |   |- Guid:20A050484DE0FFA02522CE87E0E7D080 BaseClass: NativeClass:/Script/Engine.StaticMeshActor Name:SM_Bulletin_Board_B_UAID_E88088BA760EF9B301_2032676053 Label:SM_Bulletin_Board_B SpatiallyLoaded:1 Bounds:IsValid=true, Min=(X=387.266 Y=171.148 Z=110.498), Max=(X=399.912 Y=414.887 Z=268.811) RuntimeGrid:None EditorOnly:0 RuntimeOnly:0 HLODRelevant:1 ListedInSceneOutliner:1 IsMainWorldOnly:0 FolderPath:Props
 |   |   |- Guid:21262252453B37957EF29F82ABA2413B BaseClass: NativeClass:/Script/Engine.TextRenderActor Name:TextRenderActor_1 Label:TextRenderActor SpatiallyLoaded:1 Bounds:IsValid=true, Min=(X=-3790.100 Y=1100.000 Z=65.013), Max=(X=-3790.100 Y=2363.461 Z=215.013) RuntimeGrid:None EditorOnly:0 RuntimeOnly:0 HLODRelevant:0 ListedInSceneOutliner:1 IsMainWorldOnly:0
 |   |   |- Guid:2151B9504483D6B525E3E6B3FD9F719F BaseClass: NativeClass:/Script/Engine.PointLight Name:PointLight_UAID_E88088BA760EF7B301_1898775662 Label:PointLight SpatiallyLoaded:1 Bounds:IsValid=true, Min=(X=-850.000 Y=-1740.000 Z=-730.000), Max=(X=1150.000 Y=260.000 Z=1270.000) RuntimeGrid:None EditorOnly:0 RuntimeOnly:0 HLODRelevant:0 ListedInSceneOutliner:1 IsMainWorldOnly:0
 |   |   |- Guid:21991DDC42450F0DA58311B532B8705B BaseClass: NativeClass:/Script/Engine.StaticMeshActor Name:SM_Office_Window_B_UAID_E88088BA760EF9B301_2032673045 Label:SM_Office_Window_B SpatiallyLoaded:1 Bounds:IsValid=true, Min=(X=-307.980 Y=433.757 Z=0.000), Max=(X=-111.049 Y=482.205 Z=409.599) RuntimeGrid:None EditorOnly:0 RuntimeOnly:0 HLODRelevant:1 ListedInSceneOutliner:1 IsMainWorldOnly:0 FolderPath:Structures
 |   |   |- Guid:238C8B8040886E972764789E9020C849 BaseClass: NativeClass:/Script/Engine.StaticMeshActor Name:SM_Fireplace_Mantel_UAID_E88088BA760EF9B301_2032663028 Label:SM_Fireplace_Mantel SpatiallyLoaded:1 Bounds:IsValid=true, Min=(X=-119.951 Y=-446.079 Z=0.000), Max=(X=113.308 Y=-374.967 Z=392.929) RuntimeGrid:None EditorOnly:0 RuntimeOnly:0 HLODRelevant:1 ListedInSceneOutliner:1 IsMainWorldOnly:0 FolderPath:Structures
 |   |   |- Guid:23C5E3E44F79BB84D6F67DAD5CBCC0A1 BaseClass: NativeClass:/Script/Engine.StaticMeshActor Name:SM_Hallway_Wall_B_UAID_E88088BA760EF9B301_2032667033 Label:SM_Hallway_Wall_B SpatiallyLoaded:1 Bounds:IsValid=true, Min=(X=-408.378 Y=-1154.498 Z=-0.103), Max=(X=402.151 Y=-907.585 Z=444.697) RuntimeGrid:None EditorOnly:0 RuntimeOnly:0 HLODRelevant:1 ListedInSceneOutliner:1 IsMainWorldOnly:0 FolderPath:Structures
 |   |   |- Guid:2577B4F644ECBB63172A179CC09CEBC2 BaseClass: NativeClass:/Script/Engine.StaticMeshActor Name:SM_Office_Wall_B_UAID_E88088BA760EF9B301_2032671041 Label:SM_Office_Wall_B SpatiallyLoaded:1 Bounds:IsValid=true, Min=(X=-408.967 Y=-445.359 Z=-0.103), Max=(X=-398.559 Y=445.408 Z=444.697) RuntimeGrid:None EditorOnly:0 RuntimeOnly:0 HLODRelevant:1 ListedInSceneOutliner:1 IsMainWorldOnly:0 FolderPath:Structures
 |   |   |- Guid:2703122D4F7CBBCE35A5A894A041EF29 BaseClass: NativeClass:/Script/Engine.StaticMeshActor Name:SM_Calender_UAID_E88088BA760EF9B301_2032682065 Label:SM_Calender SpatiallyLoaded:1 Bounds:IsValid=true, Min=(X=19.816 Y=435.278 Z=137.827), Max=(X=82.606 Y=444.938 Z=232.311) RuntimeGrid:None EditorOnly:0 RuntimeOnly:0 HLODRelevant:1 ListedInSceneOutliner:1 IsMainWorldOnly:0 FolderPath:Props
 |   |   |- Guid:30A814AD48303F84E8CDEE9DEA694C5D BaseClass: NativeClass:/Script/Engine.StaticMeshActor Name:SM_Notebook_UAID_E88088BA760EF9B301_2032680061 Label:SM_Notebook SpatiallyLoaded:1 Bounds:IsValid=true, Min=(X=-291.205 Y=-435.144 Z=121.922), Max=(X=-239.107 Y=-368.702 Z=127.318) RuntimeGrid:None EditorOnly:0 RuntimeOnly:0 HLODRelevant:1 ListedInSceneOutliner:1 IsMainWorldOnly:0 FolderPath:Props
 |   |   |- Guid:3536F09E45165178DF2EA5968973AF0C BaseClass: NativeClass:/Script/Engine.SkeletalMeshActor Name:SkeletalMeshActor_UAID_E88088BA760E5AB301_1817299027 Label:rp_manuel_rigged_001_ue4 SpatiallyLoaded:1 Bounds:IsValid=true, Min=(X=-1373.800 Y=2602.449 Z=-7.349), Max=(X=-1182.495 Y=2738.125 Z=31.423) RuntimeGrid:None EditorOnly:0 RuntimeOnly:0 HLODRelevant:0 ListedInSceneOutliner:1 IsMainWorldOnly:0
 |   |   |- Guid:36590892459C5DA5E0761AA3AC77B07F BaseClass: NativeClass:/Script/Engine.StaticMeshActor Name:SM_Book_A2_UAID_E88088BA760EF9B301_2032687077 Label:SM_Book_A2 SpatiallyLoaded:1 Bounds:IsValid=true, Min=(X=-388.675 Y=341.279 Z=75.435), Max=(X=-328.564 Y=390.279 Z=89.940) RuntimeGrid:None EditorOnly:0 RuntimeOnly:0 HLODRelevant:1 ListedInSceneOutliner:1 IsMainWorldOnly:0 FolderPath:Props
 |   |   |- Guid:380A55E24D6C20EE25120394BA1B7DE3 BaseClass: NativeClass:/Script/Engine.StaticMeshActor Name:SM_Folders6_UAID_E88088BA760EF9B301_2032685074 Label:SM_Folders6 SpatiallyLoaded:1 Bounds:IsValid=true, Min=(X=-382.910 Y=243.052 Z=81.053), Max=(X=-322.741 Y=289.704 Z=87.290) RuntimeGrid:None EditorOnly:0 RuntimeOnly:0 HLODRelevant:1 ListedInSceneOutliner:1 IsMainWorldOnly:0 FolderPath:Props
 |   |   |- Guid:3A079AB24249EFFF27A54EBCA5C8A392 BaseClass: NativeClass:/Script/Engine.StaticMeshActor Name:SM_Desk_UAID_E88088BA760EF9B301_2032674047 Label:SM_Desk SpatiallyLoaded:1 Bounds:IsValid=true, Min=(X=-346.462 Y=-440.418 Z=-0.721), Max=(X=-64.640 Y=-250.419 Z=121.906) RuntimeGrid:None EditorOnly:0 RuntimeOnly:0 HLODRelevant:1 ListedInSceneOutliner:1 IsMainWorldOnly:0 FolderPath:Props FolderGuid:326CBF35497C4B338055749FC31ABB1C
 |   |   |- Guid:3B732A7945F631662050EE84DE916E2A BaseClass: NativeClass:/Script/Engine.StaticMeshActor Name:SM_Office_Window_A_UAID_E88088BA760EF9B301_2032672044 Label:SM_Office_Window_A SpatiallyLoaded:1 Bounds:IsValid=true, Min=(X=104.405 Y=433.757 Z=0.000), Max=(X=301.336 Y=482.205 Z=409.599) RuntimeGrid:None EditorOnly:0 RuntimeOnly:0 HLODRelevant:1 ListedInSceneOutliner:1 IsMainWorldOnly:0 FolderPath:Structures
 |   |   |- Guid:3DFC3FC646E7B967B411C6AFA16BC7F6 BaseClass: NativeClass:/Script/Engine.StaticMeshActor Name:SM_Note_Pad_UAID_E88088BA760EF9B301_2032679059 Label:SM_Note_Pad SpatiallyLoaded:1 Bounds:IsValid=true, Min=(X=-224.129 Y=-427.070 Z=124.406), Max=(X=-193.069 Y=-382.978 Z=126.848) RuntimeGrid:None EditorOnly:0 RuntimeOnly:0 HLODRelevant:1 ListedInSceneOutliner:1 IsMainWorldOnly:0 FolderPath:Props
 |   |   |- Guid:405FB6CE4D30C3410F91B9B142C41666 BaseClass: NativeClass:/Script/Engine.StaticMeshActor Name:SM_Papers_UAID_E88088BA760EF9B301_2032679057 Label:SM_Papers SpatiallyLoaded:1 Bounds:IsValid=true, Min=(X=240.056 Y=355.166 Z=35.235), Max=(X=292.484 Y=417.074 Z=36.499) RuntimeGrid:None EditorOnly:0 RuntimeOnly:0 HLODRelevant:1 ListedInSceneOutliner:1 IsMainWorldOnly:0 FolderPath:Props
 |   |   |- Guid:4676205447AE4B9C062EEE9E2825545D BaseClass: NativeClass:/Script/Engine.StaticMeshActor Name:SM_Cigarettes_UAID_E88088BA760EF9B301_2032685071 Label:SM_Cigarettes SpatiallyLoaded:1 Bounds:IsValid=true, Min=(X=-72.909 Y=-393.645 Z=188.355), Max=(X=-41.410 Y=-368.274 Z=193.982) RuntimeGrid:None EditorOnly:0 RuntimeOnly:0 HLODRelevant:1 ListedInSceneOutliner:1 IsMainWorldOnly:0 FolderPath:Props
 |   |   |- Guid:4B789B9243EA96FAF826A9BFAAD9661E BaseClass: NativeClass:/Script/Engine.StaticMeshActor Name:SM_Hallway_Door_UAID_E88088BA760EF9B301_2032665030 Label:SM_Hallway_Door SpatiallyLoaded:1 Bounds:IsValid=true, Min=(X=59.404 Y=-999.444 Z=0.000), Max=(X=245.176 Y=-906.158 Z=392.929) RuntimeGrid:None EditorOnly:0 RuntimeOnly:0 HLODRelevant:1 ListedInSceneOutliner:1 IsMainWorldOnly:0 FolderPath:Structures
 |   |   |- Guid:55544D5E4EE9E90308E230B13F1A4B59 BaseClass: NativeClass:/Script/Engine.StaticMeshActor Name:SM_Papers3_UAID_E88088BA760EF9B301_2032685070 Label:SM_Papers3 SpatiallyLoaded:1 Bounds:IsValid=true, Min=(X=96.867 Y=-322.320 Z=0.079), Max=(X=167.085 Y=-247.181 Z=0.627) RuntimeGrid:None EditorOnly:0 RuntimeOnly:0 HLODRelevant:1 ListedInSceneOutliner:1 IsMainWorldOnly:0 FolderPath:Props
 |   |   |- Guid:558DF3DC41A990AE6AA5ADAE0809E6F8 BaseClass: NativeClass:/Script/Engine.StaticMeshActor Name:SM_Fireplace_Hearth_UAID_E88088BA760EF9B301_2032661027 Label:SM_Fireplace_Hearth SpatiallyLoaded:1 Bounds:IsValid=true, Min=(X=-123.818 Y=-505.057 Z=0.000), Max=(X=117.103 Y=-308.034 Z=161.648) RuntimeGrid:None EditorOnly:0 RuntimeOnly:0 HLODRelevant:1 ListedInSceneOutliner:1 IsMainWorldOnly:0 FolderPath:Structures
 |   |   |- Guid:55A74BB949D38B31571CDD943615EFD0 BaseClass: NativeClass:/Script/Engine.StaticMeshActor Name:SM_Book_B_UAID_E88088BA760EF9B301_2032685072 Label:SM_Book_B SpatiallyLoaded:1 Bounds:IsValid=true, Min=(X=-159.634 Y=-403.731 Z=122.400), Max=(X=-78.630 Y=-322.368 Z=132.550) RuntimeGrid:None EditorOnly:0 RuntimeOnly:0 HLODRelevant:1 ListedInSceneOutliner:1 IsMainWorldOnly:0 FolderPath:Props
 |   |   |- Guid:5DFDDC8141B4138564C2AFA8DADEAC39 BaseClass: NativeClass:/Script/Engine.PostProcessVolume Name:PostProcessVolume_UAID_E88088BA760EF6B301_1461463484 Label:PostProcessVolume2 SpatiallyLoaded:0 Bounds:IsValid=true, Min=(X=130.000 Y=2580.000 Z=50.000), Max=(X=330.000 Y=2780.000 Z=250.000) RuntimeGrid:None EditorOnly:0 RuntimeOnly:0 HLODRelevant:0 ListedInSceneOutliner:1 IsMainWorldOnly:0
 |   |   |- Guid:5FE7584649BB6F09265329A6C57CFD0D BaseClass: NativeClass:/Script/Engine.VolumetricCloud Name:VolumetricCloud_0 Label:VolumetricCloud SpatiallyLoaded:0 Bounds:IsValid=true, Min=(X=0.000 Y=0.000 Z=820.000), Max=(X=0.000 Y=0.000 Z=820.000) RuntimeGrid:None EditorOnly:0 RuntimeOnly:0 HLODRelevant:0 ListedInSceneOutliner:1 IsMainWorldOnly:0 FolderPath:Lighting FolderGuid:0BA5F0A04EADB18E70D5B180D08FA34B
 |   |   |- Guid:60B8A93A4256687197986EB835D50561 BaseClass: NativeClass:/Script/Engine.StaticMeshActor Name:SM_Office_Door_UAID_E88088BA760EF9B301_2032669037 Label:SM_Office_Door SpatiallyLoaded:1 Bounds:IsValid=true, Min=(X=-351.633 Y=-635.017 Z=0.000), Max=(X=-165.861 Y=-433.912 Z=392.929) RuntimeGrid:None EditorOnly:0 RuntimeOnly:0 HLODRelevant:1 ListedInSceneOutliner:1 IsMainWorldOnly:0 FolderPath:Structures
 |   |   |- Guid:61391D344900612A77DFC3BA3E354907 BaseClass: NativeClass:/Script/Engine.ExponentialHeightFog Name:ExponentialHeightFog_0 Label:ExponentialHeightFog SpatiallyLoaded:0 Bounds:IsValid=true, Min=(X=-5600.000 Y=-50.000 Z=-6850.000), Max=(X=-5600.000 Y=-50.000 Z=-6850.000) RuntimeGrid:None EditorOnly:0 RuntimeOnly:0 HLODRelevant:0 ListedInSceneOutliner:1 IsMainWorldOnly:0 FolderPath:Lighting FolderGuid:0BA5F0A04EADB18E70D5B180D08FA34B
 |   |   |- Guid:61532A0545B7CE1EF3C5BEA2C06F1557 BaseClass: NativeClass:/Script/Engine.StaticMeshActor Name:SM_Office_Ceiling_UAID_E88088BA760EF9B301_2032668035 Label:SM_Office_Ceiling SpatiallyLoaded:1 Bounds:IsValid=true, Min=(X=-432.276 Y=-518.914 Z=438.824), Max=(X=452.898 Y=468.888 Z=444.697) RuntimeGrid:None EditorOnly:0 RuntimeOnly:0 HLODRelevant:1 ListedInSceneOutliner:1 IsMainWorldOnly:0 FolderPath:Structures
 |   |   |- Guid:698C1E8744B4F631BAB15AAE3A39ED26 BaseClass: NativeClass:/Script/Engine.StaticMeshActor Name:SM_Vhs_Tapes2_UAID_E88088BA760EF9B301_2032682067 Label:SM_Vhs_Tapes2 SpatiallyLoaded:1 Bounds:IsValid=true, Min=(X=318.743 Y=202.771 Z=192.644), Max=(X=358.178 Y=231.388 Z=204.131) RuntimeGrid:None EditorOnly:0 RuntimeOnly:0 HLODRelevant:1 ListedInSceneOutliner:1 IsMainWorldOnly:0 FolderPath:Props
 |   |   |- Guid:69A381844C67094EFB4150AE15781FE2 BaseClass: NativeClass:/Script/Engine.StaticMeshActor Name:SM_Box_A_UAID_E88088BA760EF9B301_2032677055 Label:SM_Box_A SpatiallyLoaded:1 Bounds:IsValid=true, Min=(X=312.593 Y=327.357 Z=112.391), Max=(X=369.762 Y=405.258 Z=157.174) RuntimeGrid:None EditorOnly:0 RuntimeOnly:0 HLODRelevant:1 ListedInSceneOutliner:1 IsMainWorldOnly:0 FolderPath:Props
 |   |   |- Guid:6FEFB3BD4EB37B849EF0D4AC80F83855 BaseClass: NativeClass:/Script/Engine.WorldDataLayers Name:WorldDataLayers Label:WorldDataLayers SpatiallyLoaded:0 Bounds:IsValid=true, Min=(X=0.000 Y=0.000 Z=0.000), Max=(X=0.000 Y=0.000 Z=0.000) RuntimeGrid:None EditorOnly:0 RuntimeOnly:0 HLODRelevant:0 ListedInSceneOutliner:1 IsMainWorldOnly:1
 |   |   |- Guid:7A10325F41DB0F86D95608BF4D52EF2F BaseClass: NativeClass:/Script/Engine.StaticMeshActor Name:SM_Office_Wall_C_UAID_E88088BA760EF9B301_2032671042 Label:SM_Office_Wall_C SpatiallyLoaded:1 Bounds:IsValid=true, Min=(X=-408.673 Y=-445.654 Z=-0.103), Max=(X=402.151 Y=-386.730 Z=444.697) RuntimeGrid:None EditorOnly:0 RuntimeOnly:0 HLODRelevant:1 ListedInSceneOutliner:1 IsMainWorldOnly:0 FolderPath:Structures
 |   |   |- Guid:7DF2210040125DADB6034D9641D3616A BaseClass: NativeClass:/Script/Engine.StaticMeshActor Name:SM_Tv_UAID_E88088BA760EF9B301_2032675050 Label:SM_Tv SpatiallyLoaded:1 Bounds:IsValid=true, Min=(X=304.966 Y=166.328 Z=112.519), Max=(X=384.368 Y=262.119 Z=181.084) RuntimeGrid:None EditorOnly:0 RuntimeOnly:0 HLODRelevant:1 ListedInSceneOutliner:1 IsMainWorldOnly:0 FolderPath:Props
 |   |   |- Guid:8424F0F646DD457295343486F4847D78 BaseClass: NativeClass:/Script/Engine.StaticMeshActor Name:SM_Hallway_Wall_B_UAID_E88088BA760EFAB301_1935975260 Label:SM_Hallway_Wall_B2 SpatiallyLoaded:1 Bounds:IsValid=true, Min=(X=-624.498 Y=-1312.151 Z=-0.103), Max=(X=-377.585 Y=-501.622 Z=444.697) RuntimeGrid:None EditorOnly:0 RuntimeOnly:0 HLODRelevant:1 ListedInSceneOutliner:1 IsMainWorldOnly:0 FolderPath:Structures FolderGuid:3B07BE974A2E759308960E8EB8C29785
 |   |   |- Guid:84D455214AF14B7396C406AD43AF6647 BaseClass: NativeClass:/Script/Engine.StaticMeshActor Name:SM_Ashtray_UAID_E88088BA760EF9B301_2032682063 Label:SM_Ashtray SpatiallyLoaded:1 Bounds:IsValid=true, Min=(X=-281.187 Y=-415.159 Z=125.702), Max=(X=-247.677 Y=-379.450 Z=135.667) RuntimeGrid:None EditorOnly:0 RuntimeOnly:0 HLODRelevant:1 ListedInSceneOutliner:1 IsMainWorldOnly:0 FolderPath:Props
 |   |   |- Guid:862156B949B47A469F2D549A2AB330C0 BaseClass: NativeClass:/Script/Engine.PointLight Name:PointLight_UAID_E88088BA760EF7B301_1940368663 Label:PointLight2 SpatiallyLoaded:1 Bounds:IsValid=true, Min=(X=-960.000 Y=-1060.000 Z=-570.000), Max=(X=1040.000 Y=940.000 Z=1430.000) RuntimeGrid:None EditorOnly:0 RuntimeOnly:0 HLODRelevant:0 ListedInSceneOutliner:1 IsMainWorldOnly:0
 |   |   |- Guid:8AF1E7024AF166BAB663AD9CC4E17CD0 BaseClass: NativeClass:/Script/Engine.StaticMeshActor Name:SM_Hallway_Wall_A_UAID_E88088BA760EF9B301_2032666032 Label:SM_Hallway_Wall_A SpatiallyLoaded:1 Bounds:IsValid=true, Min=(X=-408.967 Y=-917.699 Z=-0.103), Max=(X=401.734 Y=-518.914 Z=444.697) RuntimeGrid:None EditorOnly:0 RuntimeOnly:0 HLODRelevant:1 ListedInSceneOutliner:1 IsMainWorldOnly:0 FolderPath:Structures
 |   |   |- Guid:936D71F649B96B1EAF4BC6B748986AE4 BaseClass: NativeClass:/Script/Engine.StaticMeshActor Name:SM_Remote_UAID_E88088BA760EF9B301_2032679060 Label:SM_Remote SpatiallyLoaded:1 Bounds:IsValid=true, Min=(X=104.840 Y=197.731 Z=121.906), Max=(X=136.812 Y=219.705 Z=125.468) RuntimeGrid:None EditorOnly:0 RuntimeOnly:0 HLODRelevant:1 ListedInSceneOutliner:1 IsMainWorldOnly:0 FolderPath:Props
 |   |   |- Guid:96CC502A4BDAD0A5E54884B3D7B5408A BaseClass: NativeClass:/Script/Engine.StaticMeshActor Name:SM_Bookcase_UAID_E88088BA760EF9B301_2032676052 Label:SM_Bookcase SpatiallyLoaded:1 Bounds:IsValid=true, Min=(X=-396.322 Y=228.854 Z=0.000), Max=(X=-325.026 Y=415.378 Z=362.785) RuntimeGrid:None EditorOnly:0 RuntimeOnly:0 HLODRelevant:1 ListedInSceneOutliner:1 IsMainWorldOnly:0 FolderPath:Props
 |   |   |- Guid:A167C1204F6B6871DBF1CFA1036989BF BaseClass: NativeClass:/Script/Engine.StaticMeshActor Name:SM_Box_B_UAID_E88088BA760EF9B301_2032677056 Label:SM_Box_B SpatiallyLoaded:1 Bounds:IsValid=true, Min=(X=223.753 Y=346.477 Z=-0.567), Max=(X=298.912 Y=456.090 Z=62.931) RuntimeGrid:None EditorOnly:0 RuntimeOnly:0 HLODRelevant:1 ListedInSceneOutliner:1 IsMainWorldOnly:0 FolderPath:Props
 |   |   |- Guid:A354B1B24E617A525DC6B48CCDE2417E BaseClass: NativeClass:/Script/Engine.PlayerStart Name:PlayerStart_0 Label:PlayerStart SpatiallyLoaded:0 Bounds:IsValid=true, Min=(X=10.000 Y=280.000 Z=60.013), Max=(X=90.000 Y=360.000 Z=244.013) RuntimeGrid:None EditorOnly:0 RuntimeOnly:0 HLODRelevant:0 ListedInSceneOutliner:1 IsMainWorldOnly:0
 |   |   |- Guid:A441CCCD407B2D87B9D1A2A4F85D8B3D BaseClass: NativeClass:/Script/Engine.StaticMeshActor Name:SM_Wall_Clock_UAID_E88088BA760EF9B301_2032682064 Label:SM_Wall_Clock SpatiallyLoaded:1 Bounds:IsValid=true, Min=(X=-409.047 Y=-1.560 Z=308.489), Max=(X=-399.871 Y=55.518 Z=365.434) RuntimeGrid:None EditorOnly:0 RuntimeOnly:0 HLODRelevant:1 ListedInSceneOutliner:1 IsMainWorldOnly:0 FolderPath:Props
 |   |   |- Guid:A9D12CEB40ECCADE0032C78E510BD46A BaseClass: NativeClass:/Script/Engine.StaticMeshActor Name:SM_Vhs_Tapes_UAID_E88088BA760EF9B301_2032677054 Label:SM_Vhs_Tapes SpatiallyLoaded:1 Bounds:IsValid=true, Min=(X=304.310 Y=269.181 Z=112.273), Max=(X=353.009 Y=315.959 Z=123.761) RuntimeGrid:None EditorOnly:0 RuntimeOnly:0 HLODRelevant:1 ListedInSceneOutliner:1 IsMainWorldOnly:0 FolderPath:Props
 |   |   |- Guid:AD584DC145AE358E34ED5297F3C55A5C BaseClass: NativeClass:/Script/Engine.StaticMeshActor Name:SM_Office_Wall_D_UAID_E88088BA760EF9B301_2032672043 Label:SM_Office_Wall_D SpatiallyLoaded:1 Bounds:IsValid=true, Min=(X=392.037 Y=-445.408 Z=-0.103), Max=(X=425.018 Y=445.407 Z=444.697) RuntimeGrid:None EditorOnly:0 RuntimeOnly:0 HLODRelevant:1 ListedInSceneOutliner:1 IsMainWorldOnly:0 FolderPath:Structures
 |   |   |- Guid:B651F6CA4999AF9E4355018047CC5E8A BaseClass: NativeClass:/Script/Engine.StaticMeshActor Name:SM_Office_Pocket_Doors_UAID_E88088BA760EF9B301_2032670039 Label:SM_Office_Pocket_Doors SpatiallyLoaded:1 Bounds:IsValid=true, Min=(X=390.501 Y=-147.735 Z=-0.206), Max=(X=475.503 Y=147.661 Z=392.723) RuntimeGrid:None EditorOnly:0 RuntimeOnly:0 HLODRelevant:1 ListedInSceneOutliner:1 IsMainWorldOnly:0 FolderPath:Structures
 |   |   |- Guid:B87E862542BA4F59B3480F86CA4CE93F BaseClass: NativeClass:/Script/Engine.StaticMeshActor Name:SM_Papers2_UAID_E88088BA760EF9B301_2032679058 Label:SM_Papers2 SpatiallyLoaded:1 Bounds:IsValid=true, Min=(X=-208.988 Y=-414.981 Z=122.657), Max=(X=-163.341 Y=-354.776 Z=123.205) RuntimeGrid:None EditorOnly:0 RuntimeOnly:0 HLODRelevant:1 ListedInSceneOutliner:1 IsMainWorldOnly:0 FolderPath:Props
 |   |   |- Guid:B8AF41BF46227B08A4F7909AB725789E BaseClass: NativeClass:/Script/Engine.StaticMeshActor Name:SM_Chair_B2_UAID_E88088BA760EF9B301_2032687079 Label:SM_Chair_B3 SpatiallyLoaded:1 Bounds:IsValid=true, Min=(X=-359.903 Y=-412.683 Z=131.399), Max=(X=-245.798 Y=-302.666 Z=310.925) RuntimeGrid:None EditorOnly:0 RuntimeOnly:0 HLODRelevant:1 ListedInSceneOutliner:1 IsMainWorldOnly:0 FolderPath:Props
 |   |   |- Guid:BEA869C04E4E61451D6A5BBFDDF3C679 BaseClass:/Game/Scanned3DPeoplePack/RP_Character/rp_claudia_rigged_002_Mobile_ue4/Animations/Jumpscare.Jumpscare_C NativeClass:/Script/Engine.Actor Name:Jumpscare_C_UAID_E88088BA760EF2B301_1446502781 Label:Jumpscare SpatiallyLoaded:1 Bounds:IsValid=true, Min=(X=133.654 Y=-778.950 Z=2.616), Max=(X=220.452 Y=-680.788 Z=365.911) RuntimeGrid:None EditorOnly:0 RuntimeOnly:0 HLODRelevant:0 ListedInSceneOutliner:1 IsMainWorldOnly:0
 |   |   |- Guid:BEED77434723C438E665DC87B3BA8C95 BaseClass: NativeClass:/Script/Engine.StaticMeshActor Name:SM_Folders2_UAID_E88088BA760EF9B301_2032680062 Label:SM_Folders2 SpatiallyLoaded:1 Bounds:IsValid=true, Min=(X=-270.903 Y=-371.764 Z=121.906), Max=(X=-202.258 Y=-313.531 Z=125.201) RuntimeGrid:None EditorOnly:0 RuntimeOnly:0 HLODRelevant:1 ListedInSceneOutliner:1 IsMainWorldOnly:0 FolderPath:Props
 |   |   |- Guid:C0C56B9644AE3D40CAFF6A878DB29844 BaseClass: NativeClass:/Script/Engine.StaticMeshActor Name:StaticMeshActor_UAID_A4AE111137DC5EFB00_2001720423 Label:SM_SkySphere SpatiallyLoaded:0 Bounds:IsValid=true, Min=(X=-1638400.000 Y=-1638400.000 Z=-1638400.000), Max=(X=1638400.000 Y=1638400.000 Z=1638400.000) RuntimeGrid:None EditorOnly:0 RuntimeOnly:0 HLODRelevant:1 ListedInSceneOutliner:1 IsMainWorldOnly:0 FolderPath:Lighting FolderGuid:0BA5F0A04EADB18E70D5B180D08FA34B
 |   |   |- Guid:C1A45F494E6227DA89936BB378F26082 BaseClass: NativeClass:/Script/Engine.StaticMeshActor Name:SM_Hallway_Wall_C_UAID_E88088BA760EF9B301_2032667034 Label:SM_Hallway_Wall_C SpatiallyLoaded:1 Bounds:IsValid=true, Min=(X=391.620 Y=-1033.297 Z=-0.103), Max=(X=808.526 Y=-518.914 Z=444.697) RuntimeGrid:None EditorOnly:0 RuntimeOnly:0 HLODRelevant:1 ListedInSceneOutliner:1 IsMainWorldOnly:0 FolderPath:Structures
 |   |   |- Guid:C22CE07C4B87D685137FDBBC10FC92C6 BaseClass: NativeClass:/Script/Engine.SkyAtmosphere Name:SkyAtmosphere_0 Label:SkyAtmosphere SpatiallyLoaded:0 Bounds:IsValid=true, Min=(X=0.000 Y=0.000 Z=1020.000), Max=(X=0.000 Y=0.000 Z=1020.000) RuntimeGrid:None EditorOnly:0 RuntimeOnly:0 HLODRelevant:0 ListedInSceneOutliner:1 IsMainWorldOnly:0 FolderPath:Lighting FolderGuid:0BA5F0A04EADB18E70D5B180D08FA34B
 |   |   |- Guid:CCBDEDAF4E57AEF8EB6507A0CE22B529 BaseClass: NativeClass:/Script/Engine.StaticMeshActor Name:SM_Folders5_UAID_E88088BA760EF9B301_2032682066 Label:SM_Folders5 SpatiallyLoaded:1 Bounds:IsValid=true, Min=(X=157.355 Y=-330.467 Z=-0.000), Max=(X=211.433 Y=-264.712 Z=4.808) RuntimeGrid:None EditorOnly:0 RuntimeOnly:0 HLODRelevant:1 ListedInSceneOutliner:1 IsMainWorldOnly:0 FolderPath:Props
 |   |   |- Guid:CE8D82634660FCDB3120E2B8D547C533 BaseClass: NativeClass:/Script/Engine.PostProcessVolume Name:PostProcessVolume_0 Label:PostProcessVolume SpatiallyLoaded:0 Bounds:IsValid=true, Min=(X=0.000 Y=0.000 Z=400.000), Max=(X=200.000 Y=200.000 Z=600.000) RuntimeGrid:None EditorOnly:0 RuntimeOnly:0 HLODRelevant:0 ListedInSceneOutliner:1 IsMainWorldOnly:0 FolderPath:Lighting FolderGuid:0BA5F0A04EADB18E70D5B180D08FA34B
 |   |   |- Guid:D4D8B10B449CA7DDEC813FBB63AAE2C4 BaseClass: NativeClass:/Script/Engine.StaticMeshActor Name:SM_Folders7_UAID_E88088BA760EF9B301_2032687078 Label:SM_Folders7 SpatiallyLoaded:1 Bounds:IsValid=true, Min=(X=-402.361 Y=313.628 Z=245.219), Max=(X=-331.858 Y=389.092 Z=247.980) RuntimeGrid:None EditorOnly:0 RuntimeOnly:0 HLODRelevant:1 ListedInSceneOutliner:1 IsMainWorldOnly:0 FolderPath:Props
 |   |   |- Guid:D55A53AF49DFDFEBE5770B93B9A4BE79 BaseClass: NativeClass:/Script/Engine.StaticMeshActor Name:SM_Hallway_Ceiling_UAID_E88088BA760EF9B301_2032664029 Label:SM_Hallway_Ceiling SpatiallyLoaded:1 Bounds:IsValid=true, Min=(X=-420.193 Y=-1041.298 Z=441.096), Max=(X=807.043 Y=-518.616 Z=465.596) RuntimeGrid:None EditorOnly:0 RuntimeOnly:0 HLODRelevant:1 ListedInSceneOutliner:1 IsMainWorldOnly:0 FolderPath:Structures
 |   |   |- Guid:DB1173FF41F2C9740904329DF98B50ED BaseClass: NativeClass:/Script/Engine.StaticMeshActor Name:SM_Box_C4_UAID_E88088BA760EF9B301_2032686075 Label:SM_Box_C4 SpatiallyLoaded:1 Bounds:IsValid=true, Min=(X=-383.279 Y=359.728 Z=362.309), Max=(X=-334.554 Y=409.840 Z=402.021) RuntimeGrid:None EditorOnly:0 RuntimeOnly:0 HLODRelevant:1 ListedInSceneOutliner:1 IsMainWorldOnly:0 FolderPath:Props
 |   |   |- Guid:DB9D5AF9447C57950F36D0AD9EB6E087 BaseClass: NativeClass:/Script/Engine.StaticMeshActor Name:SM_Side_Table_UAID_E88088BA760EF9B301_2032674049 Label:SM_Side_Table SpatiallyLoaded:1 Bounds:IsValid=true, Min=(X=303.354 Y=164.928 Z=-0.314), Max=(X=393.099 Y=421.237 Z=112.601) RuntimeGrid:None EditorOnly:0 RuntimeOnly:0 HLODRelevant:1 ListedInSceneOutliner:1 IsMainWorldOnly:0 FolderPath:Props
 |   |   |- Guid:DF49FB0F4F7D6C088C3EC4AE02D84505 BaseClass: NativeClass:/Script/Engine.StaticMeshActor Name:SM_Office_Wall_A_UAID_E88088BA760EF9B301_2032670040 Label:SM_Office_Wall_A SpatiallyLoaded:1 Bounds:IsValid=true, Min=(X=-408.795 Y=435.293 Z=-0.103), Max=(X=402.152 Y=445.580 Z=444.697) RuntimeGrid:None EditorOnly:0 RuntimeOnly:0 HLODRelevant:1 ListedInSceneOutliner:1 IsMainWorldOnly:0 FolderPath:Structures
 |   |   |- Guid:E28E96DE4236E844EBBAB084174FC3D6 BaseClass: NativeClass:/Script/Engine.StaticMeshActor Name:SM_Hallway_Wall_C_UAID_E88088BA760EFAB301_1846548258 Label:SM_Hallway_Wall_C2 SpatiallyLoaded:1 Bounds:IsValid=true, Min=(X=391.620 Y=-1033.297 Z=-0.103), Max=(X=808.526 Y=-518.914 Z=444.697) RuntimeGrid:None EditorOnly:0 RuntimeOnly:0 HLODRelevant:1 ListedInSceneOutliner:1 IsMainWorldOnly:0 FolderPath:Structures FolderGuid:3B07BE974A2E759308960E8EB8C29785
 |   |   |- Guid:E4032A174CA43A0912F10E9D96FB5245 BaseClass: NativeClass:/Script/Engine.TriggerBox Name:TriggerBox_UAID_E88088BA760EF2B301_2131799775 Label:TriggerBox SpatiallyLoaded:1 Bounds:IsValid=true, Min=(X=-342.500 Y=-91.250 Z=81.250), Max=(X=-17.500 Y=191.250 Z=238.750) RuntimeGrid:None EditorOnly:0 RuntimeOnly:0 HLODRelevant:0 ListedInSceneOutliner:1 IsMainWorldOnly:0
 |   |   |- Guid:E5320C1B4FD9764CE7B54D8487AEC613 BaseClass: NativeClass:/Script/Engine.SkyLight Name:SkyLight_0 Label:SkyLight SpatiallyLoaded:0 Bounds:IsValid=true, Min=(X=0.000 Y=0.000 Z=690.000), Max=(X=0.000 Y=0.000 Z=690.000) RuntimeGrid:None EditorOnly:0 RuntimeOnly:0 HLODRelevant:0 ListedInSceneOutliner:1 IsMainWorldOnly:0 FolderPath:Lighting FolderGuid:0BA5F0A04EADB18E70D5B180D08FA34B
 |   |   |- Guid:E96AD3A8418950F7848177B163CB85E0 BaseClass: NativeClass:/Script/Engine.StaticMeshActor Name:SM_Office_Floor_UAID_E88088BA760EF9B301_2032669038 Label:SM_Office_Floor SpatiallyLoaded:1 Bounds:IsValid=true, Min=(X=-432.276 Y=-518.914 Z=-0.000), Max=(X=452.898 Y=468.888 Z=0.000) RuntimeGrid:None EditorOnly:0 RuntimeOnly:0 HLODRelevant:1 ListedInSceneOutliner:1 IsMainWorldOnly:0 FolderPath:Structures
 |   |   |- Guid:F0413EEC4D0A08A49CC6BEB626BD282C BaseClass: NativeClass:/Script/Engine.StaticMeshActor Name:SM_Office_Window_C_UAID_E88088BA760EF9B301_2032673046 Label:SM_Office_Window_C SpatiallyLoaded:1 Bounds:IsValid=true, Min=(X=-445.593 Y=-246.201 Z=0.000), Max=(X=-397.145 Y=-49.269 Z=409.599) RuntimeGrid:None EditorOnly:0 RuntimeOnly:0 HLODRelevant:1 ListedInSceneOutliner:1 IsMainWorldOnly:0 FolderPath:Structures
 |   |   |- Guid:F1D5CD564077FB495BED289405DB1DE6 BaseClass: NativeClass:/Script/Engine.StaticMeshActor Name:SM_Folders_UAID_E88088BA760EF9B301_2032684069 Label:SM_Folders SpatiallyLoaded:1 Bounds:IsValid=true, Min=(X=26.854 Y=-378.603 Z=3.049), Max=(X=82.812 Y=-311.518 Z=4.811) RuntimeGrid:None EditorOnly:0 RuntimeOnly:0 HLODRelevant:1 ListedInSceneOutliner:1 IsMainWorldOnly:0 FolderPath:Props
 |   |   |- Guid:F80621C9446867154938FE81375207DA BaseClass: NativeClass:/Script/Engine.DirectionalLight Name:DirectionalLight_1 Label:DirectionalLight SpatiallyLoaded:0 Bounds:IsValid=true, Min=(X=-4398046511104.000 Y=-4398046511104.000 Z=-4398046511104.000), Max=(X=4398046511104.000 Y=4398046511104.000 Z=4398046511104.000) RuntimeGrid:None EditorOnly:0 RuntimeOnly:0 HLODRelevant:0 ListedInSceneOutliner:1 IsMainWorldOnly:0 FolderPath:Lighting FolderGuid:0BA5F0A04EADB18E70D5B180D08FA34B
 |   |   |- Guid:FB7BABC94AB04652600C1C96C600C5D1 BaseClass: NativeClass:/Script/Engine.BlockingVolume Name:BlockingVolume_UAID_E88088BA760EFAB301_1227468257 Label:BlockingVolume SpatiallyLoaded:1 Bounds:IsValid=true, Min=(X=-760.000 Y=-1230.000 Z=-100.000), Max=(X=840.000 Y=770.000 Z=0.000) RuntimeGrid:None EditorOnly:0 RuntimeOnly:0 HLODRelevant:0 ListedInSceneOutliner:1 IsMainWorldOnly:0 FolderPath:RenderFX FolderGuid:397A8BD249422D8C3C81748C5D35A3FD
 |   |- [+] Clusters:
 |   |   |- [+] [  0]
 |   |   |   |- Guid:03BC75644B13AF8753681D91FA3DC026 BaseClass: NativeClass:/Script/Engine.StaticMeshActor Name:SM_Vcr_UAID_E88088BA760EF9B301_2032675051 Label:SM_Vcr SpatiallyLoaded:1 Bounds:IsValid=true, Min=(X=306.477 Y=173.608 Z=87.273), Max=(X=399.901 Y=327.624 Z=198.423) RuntimeGrid:None EditorOnly:0 RuntimeOnly:0 HLODRelevant:1 ListedInSceneOutliner:1 IsMainWorldOnly:0 FolderPath:Props
 |   |   |- [+] [  1]
 |   |   |   |- Guid:0A945D5C4F04323EA90A18B8719516CD BaseClass: NativeClass:/Script/Engine.StaticMeshActor Name:SM_Standing_Lamp_UAID_E88088BA760EF9B301_2032674048 Label:SM_Standing_Lamp SpatiallyLoaded:1 Bounds:IsValid=true, Min=(X=316.159 Y=-336.589 Z=-0.868), Max=(X=399.989 Y=-157.411 Z=247.501) RuntimeGrid:None EditorOnly:0 RuntimeOnly:0 HLODRelevant:1 ListedInSceneOutliner:1 IsMainWorldOnly:0 FolderPath:Props
 |   |   |- [+] [  2]
 |   |   |   |- Guid:0B790C204FFAF42243A664943B5E926F BaseClass: NativeClass:/Script/Engine.StaticMeshActor Name:SM_Notebook2_UAID_E88088BA760EF9B301_2032685073 Label:SM_Notebook2 SpatiallyLoaded:1 Bounds:IsValid=true, Min=(X=-153.103 Y=-379.794 Z=132.516), Max=(X=-74.679 Y=-301.661 Z=138.196) RuntimeGrid:None EditorOnly:0 RuntimeOnly:0 HLODRelevant:1 ListedInSceneOutliner:1 IsMainWorldOnly:0 FolderPath:Props
 |   |   |- [+] [  3]
 |   |   |   |- Guid:13B1448B4F60EC39AE8532847B75D32D BaseClass: NativeClass:/Script/Engine.StaticMeshActor Name:SM_Bulletin_Board_A_UAID_E88088BA760EF9B301_2032684068 Label:SM_Bulletin_Board_A SpatiallyLoaded:1 Bounds:IsValid=true, Min=(X=-23.395 Y=-395.844 Z=188.425), Max=(X=94.423 Y=-370.421 Z=341.301) RuntimeGrid:None EditorOnly:0 RuntimeOnly:0 HLODRelevant:1 ListedInSceneOutliner:1 IsMainWorldOnly:0 FolderPath:Props
 |   |   |- [+] [  4]
 |   |   |   |- Guid:13DB0A6B4FCB5DA08CCD9B93DFE2553B BaseClass: NativeClass:/Script/Engine.StaticMeshActor Name:SM_Book_C_UAID_E88088BA760EF9B301_2032686076 Label:SM_Book_C SpatiallyLoaded:1 Bounds:IsValid=true, Min=(X=-385.535 Y=321.015 Z=129.271), Max=(X=-328.427 Y=389.255 Z=137.527) RuntimeGrid:None EditorOnly:0 RuntimeOnly:0 HLODRelevant:1 ListedInSceneOutliner:1 IsMainWorldOnly:0 FolderPath:Props
 |   |   |- [+] [  5]
 |   |   |   |- Guid:149EF73740A01BCA9F4F989ECDFDCB8E BaseClass: NativeClass:/Script/Engine.AmbientSound Name:AmbientSound_UAID_E88088BA760EF4B301_2104260131 Label:SolidOrchestralFour_Cue SpatiallyLoaded:1 Bounds:IsValid=true, Min=(X=130.000 Y=-810.000 Z=100.000), Max=(X=130.000 Y=-810.000 Z=100.000) RuntimeGrid:None EditorOnly:0 RuntimeOnly:0 HLODRelevant:0 ListedInSceneOutliner:1 IsMainWorldOnly:0
 |   |   |- [+] [  6]
 |   |   |   |- Guid:151EE682466F745F92C57BAE817B7811 BaseClass: NativeClass:/Script/Engine.StaticMeshActor Name:SM_Hallway_Floor_UAID_E88088BA760EF9B301_2032665031 Label:SM_Hallway_Floor SpatiallyLoaded:1 Bounds:IsValid=true, Min=(X=-432.276 Y=-1158.499 Z=-0.000), Max=(X=817.125 Y=-518.914 Z=-0.000) RuntimeGrid:None EditorOnly:0 RuntimeOnly:0 HLODRelevant:1 ListedInSceneOutliner:1 IsMainWorldOnly:0 FolderPath:Structures
 |   |   |- [+] [  7]
 |   |   |   |- Guid:1640EBEA45ECC7DD9D3833A17A6BA45C BaseClass: NativeClass:/Script/Engine.StaticMeshActor Name:SM_Office_Ceiling_Light_UAID_E88088BA760EF9B301_2032668036 Label:SM_Office_Ceiling_Light SpatiallyLoaded:1 Bounds:IsValid=true, Min=(X=-60.289 Y=-58.508 Z=397.381), Max=(X=57.670 Y=59.451 Z=441.619) RuntimeGrid:None EditorOnly:0 RuntimeOnly:0 HLODRelevant:0 ListedInSceneOutliner:1 IsMainWorldOnly:0 FolderPath:Structures
 |   |   |- [+] [  8]
 |   |   |   |- Guid:20A050484DE0FFA02522CE87E0E7D080 BaseClass: NativeClass:/Script/Engine.StaticMeshActor Name:SM_Bulletin_Board_B_UAID_E88088BA760EF9B301_2032676053 Label:SM_Bulletin_Board_B SpatiallyLoaded:1 Bounds:IsValid=true, Min=(X=387.266 Y=171.148 Z=110.498), Max=(X=399.912 Y=414.887 Z=268.811) RuntimeGrid:None EditorOnly:0 RuntimeOnly:0 HLODRelevant:1 ListedInSceneOutliner:1 IsMainWorldOnly:0 FolderPath:Props
 |   |   |- [+] [  9]
 |   |   |   |- Guid:21262252453B37957EF29F82ABA2413B BaseClass: NativeClass:/Script/Engine.TextRenderActor Name:TextRenderActor_1 Label:TextRenderActor SpatiallyLoaded:1 Bounds:IsValid=true, Min=(X=-3790.100 Y=1100.000 Z=65.013), Max=(X=-3790.100 Y=2363.461 Z=215.013) RuntimeGrid:None EditorOnly:0 RuntimeOnly:0 HLODRelevant:0 ListedInSceneOutliner:1 IsMainWorldOnly:0
 |   |   |- [+] [ 10]
 |   |   |   |- Guid:2151B9504483D6B525E3E6B3FD9F719F BaseClass: NativeClass:/Script/Engine.PointLight Name:PointLight_UAID_E88088BA760EF7B301_1898775662 Label:PointLight SpatiallyLoaded:1 Bounds:IsValid=true, Min=(X=-850.000 Y=-1740.000 Z=-730.000), Max=(X=1150.000 Y=260.000 Z=1270.000) RuntimeGrid:None EditorOnly:0 RuntimeOnly:0 HLODRelevant:0 ListedInSceneOutliner:1 IsMainWorldOnly:0
 |   |   |- [+] [ 11]
 |   |   |   |- Guid:21991DDC42450F0DA58311B532B8705B BaseClass: NativeClass:/Script/Engine.StaticMeshActor Name:SM_Office_Window_B_UAID_E88088BA760EF9B301_2032673045 Label:SM_Office_Window_B SpatiallyLoaded:1 Bounds:IsValid=true, Min=(X=-307.980 Y=433.757 Z=0.000), Max=(X=-111.049 Y=482.205 Z=409.599) RuntimeGrid:None EditorOnly:0 RuntimeOnly:0 HLODRelevant:1 ListedInSceneOutliner:1 IsMainWorldOnly:0 FolderPath:Structures
 |   |   |- [+] [ 12]
 |   |   |   |- Guid:238C8B8040886E972764789E9020C849 BaseClass: NativeClass:/Script/Engine.StaticMeshActor Name:SM_Fireplace_Mantel_UAID_E88088BA760EF9B301_2032663028 Label:SM_Fireplace_Mantel SpatiallyLoaded:1 Bounds:IsValid=true, Min=(X=-119.951 Y=-446.079 Z=0.000), Max=(X=113.308 Y=-374.967 Z=392.929) RuntimeGrid:None EditorOnly:0 RuntimeOnly:0 HLODRelevant:1 ListedInSceneOutliner:1 IsMainWorldOnly:0 FolderPath:Structures
 |   |   |- [+] [ 13]
 |   |   |   |- Guid:23C5E3E44F79BB84D6F67DAD5CBCC0A1 BaseClass: NativeClass:/Script/Engine.StaticMeshActor Name:SM_Hallway_Wall_B_UAID_E88088BA760EF9B301_2032667033 Label:SM_Hallway_Wall_B SpatiallyLoaded:1 Bounds:IsValid=true, Min=(X=-408.378 Y=-1154.498 Z=-0.103), Max=(X=402.151 Y=-907.585 Z=444.697) RuntimeGrid:None EditorOnly:0 RuntimeOnly:0 HLODRelevant:1 ListedInSceneOutliner:1 IsMainWorldOnly:0 FolderPath:Structures
 |   |   |- [+] [ 14]
 |   |   |   |- Guid:2577B4F644ECBB63172A179CC09CEBC2 BaseClass: NativeClass:/Script/Engine.StaticMeshActor Name:SM_Office_Wall_B_UAID_E88088BA760EF9B301_2032671041 Label:SM_Office_Wall_B SpatiallyLoaded:1 Bounds:IsValid=true, Min=(X=-408.967 Y=-445.359 Z=-0.103), Max=(X=-398.559 Y=445.408 Z=444.697) RuntimeGrid:None EditorOnly:0 RuntimeOnly:0 HLODRelevant:1 ListedInSceneOutliner:1 IsMainWorldOnly:0 FolderPath:Structures
 |   |   |- [+] [ 15]
 |   |   |   |- Guid:2703122D4F7CBBCE35A5A894A041EF29 BaseClass: NativeClass:/Script/Engine.StaticMeshActor Name:SM_Calender_UAID_E88088BA760EF9B301_2032682065 Label:SM_Calender SpatiallyLoaded:1 Bounds:IsValid=true, Min=(X=19.816 Y=435.278 Z=137.827), Max=(X=82.606 Y=444.938 Z=232.311) RuntimeGrid:None EditorOnly:0 RuntimeOnly:0 HLODRelevant:1 ListedInSceneOutliner:1 IsMainWorldOnly:0 FolderPath:Props
 |   |   |- [+] [ 16]
 |   |   |   |- Guid:30A814AD48303F84E8CDEE9DEA694C5D BaseClass: NativeClass:/Script/Engine.StaticMeshActor Name:SM_Notebook_UAID_E88088BA760EF9B301_2032680061 Label:SM_Notebook SpatiallyLoaded:1 Bounds:IsValid=true, Min=(X=-291.205 Y=-435.144 Z=121.922), Max=(X=-239.107 Y=-368.702 Z=127.318) RuntimeGrid:None EditorOnly:0 RuntimeOnly:0 HLODRelevant:1 ListedInSceneOutliner:1 IsMainWorldOnly:0 FolderPath:Props
 |   |   |- [+] [ 17]
 |   |   |   |- Guid:3536F09E45165178DF2EA5968973AF0C BaseClass: NativeClass:/Script/Engine.SkeletalMeshActor Name:SkeletalMeshActor_UAID_E88088BA760E5AB301_1817299027 Label:rp_manuel_rigged_001_ue4 SpatiallyLoaded:1 Bounds:IsValid=true, Min=(X=-1373.800 Y=2602.449 Z=-7.349), Max=(X=-1182.495 Y=2738.125 Z=31.423) RuntimeGrid:None EditorOnly:0 RuntimeOnly:0 HLODRelevant:0 ListedInSceneOutliner:1 IsMainWorldOnly:0
 |   |   |- [+] [ 18]
 |   |   |   |- Guid:36590892459C5DA5E0761AA3AC77B07F BaseClass: NativeClass:/Script/Engine.StaticMeshActor Name:SM_Book_A2_UAID_E88088BA760EF9B301_2032687077 Label:SM_Book_A2 SpatiallyLoaded:1 Bounds:IsValid=true, Min=(X=-388.675 Y=341.279 Z=75.435), Max=(X=-328.564 Y=390.279 Z=89.940) RuntimeGrid:None EditorOnly:0 RuntimeOnly:0 HLODRelevant:1 ListedInSceneOutliner:1 IsMainWorldOnly:0 FolderPath:Props
 |   |   |- [+] [ 19]
 |   |   |   |- Guid:380A55E24D6C20EE25120394BA1B7DE3 BaseClass: NativeClass:/Script/Engine.StaticMeshActor Name:SM_Folders6_UAID_E88088BA760EF9B301_2032685074 Label:SM_Folders6 SpatiallyLoaded:1 Bounds:IsValid=true, Min=(X=-382.910 Y=243.052 Z=81.053), Max=(X=-322.741 Y=289.704 Z=87.290) RuntimeGrid:None EditorOnly:0 RuntimeOnly:0 HLODRelevant:1 ListedInSceneOutliner:1 IsMainWorldOnly:0 FolderPath:Props
 |   |   |- [+] [ 20]
 |   |   |   |- Guid:3A079AB24249EFFF27A54EBCA5C8A392 BaseClass: NativeClass:/Script/Engine.StaticMeshActor Name:SM_Desk_UAID_E88088BA760EF9B301_2032674047 Label:SM_Desk SpatiallyLoaded:1 Bounds:IsValid=true, Min=(X=-346.462 Y=-440.418 Z=-0.721), Max=(X=-64.640 Y=-250.419 Z=121.906) RuntimeGrid:None EditorOnly:0 RuntimeOnly:0 HLODRelevant:1 ListedInSceneOutliner:1 IsMainWorldOnly:0 FolderPath:Props FolderGuid:326CBF35497C4B338055749FC31ABB1C
 |   |   |- [+] [ 21]
 |   |   |   |- Guid:3B732A7945F631662050EE84DE916E2A BaseClass: NativeClass:/Script/Engine.StaticMeshActor Name:SM_Office_Window_A_UAID_E88088BA760EF9B301_2032672044 Label:SM_Office_Window_A SpatiallyLoaded:1 Bounds:IsValid=true, Min=(X=104.405 Y=433.757 Z=0.000), Max=(X=301.336 Y=482.205 Z=409.599) RuntimeGrid:None EditorOnly:0 RuntimeOnly:0 HLODRelevant:1 ListedInSceneOutliner:1 IsMainWorldOnly:0 FolderPath:Structures
 |   |   |- [+] [ 22]
 |   |   |   |- Guid:3DFC3FC646E7B967B411C6AFA16BC7F6 BaseClass: NativeClass:/Script/Engine.StaticMeshActor Name:SM_Note_Pad_UAID_E88088BA760EF9B301_2032679059 Label:SM_Note_Pad SpatiallyLoaded:1 Bounds:IsValid=true, Min=(X=-224.129 Y=-427.070 Z=124.406), Max=(X=-193.069 Y=-382.978 Z=126.848) RuntimeGrid:None EditorOnly:0 RuntimeOnly:0 HLODRelevant:1 ListedInSceneOutliner:1 IsMainWorldOnly:0 FolderPath:Props
 |   |   |- [+] [ 23]
 |   |   |   |- Guid:405FB6CE4D30C3410F91B9B142C41666 BaseClass: NativeClass:/Script/Engine.StaticMeshActor Name:SM_Papers_UAID_E88088BA760EF9B301_2032679057 Label:SM_Papers SpatiallyLoaded:1 Bounds:IsValid=true, Min=(X=240.056 Y=355.166 Z=35.235), Max=(X=292.484 Y=417.074 Z=36.499) RuntimeGrid:None EditorOnly:0 RuntimeOnly:0 HLODRelevant:1 ListedInSceneOutliner:1 IsMainWorldOnly:0 FolderPath:Props
 |   |   |- [+] [ 24]
 |   |   |   |- Guid:4676205447AE4B9C062EEE9E2825545D BaseClass: NativeClass:/Script/Engine.StaticMeshActor Name:SM_Cigarettes_UAID_E88088BA760EF9B301_2032685071 Label:SM_Cigarettes SpatiallyLoaded:1 Bounds:IsValid=true, Min=(X=-72.909 Y=-393.645 Z=188.355), Max=(X=-41.410 Y=-368.274 Z=193.982) RuntimeGrid:None EditorOnly:0 RuntimeOnly:0 HLODRelevant:1 ListedInSceneOutliner:1 IsMainWorldOnly:0 FolderPath:Props
 |   |   |- [+] [ 25]
 |   |   |   |- Guid:4B789B9243EA96FAF826A9BFAAD9661E BaseClass: NativeClass:/Script/Engine.StaticMeshActor Name:SM_Hallway_Door_UAID_E88088BA760EF9B301_2032665030 Label:SM_Hallway_Door SpatiallyLoaded:1 Bounds:IsValid=true, Min=(X=59.404 Y=-999.444 Z=0.000), Max=(X=245.176 Y=-906.158 Z=392.929) RuntimeGrid:None EditorOnly:0 RuntimeOnly:0 HLODRelevant:1 ListedInSceneOutliner:1 IsMainWorldOnly:0 FolderPath:Structures
 |   |   |- [+] [ 26]
 |   |   |   |- Guid:55544D5E4EE9E90308E230B13F1A4B59 BaseClass: NativeClass:/Script/Engine.StaticMeshActor Name:SM_Papers3_UAID_E88088BA760EF9B301_2032685070 Label:SM_Papers3 SpatiallyLoaded:1 Bounds:IsValid=true, Min=(X=96.867 Y=-322.320 Z=0.079), Max=(X=167.085 Y=-247.181 Z=0.627) RuntimeGrid:None EditorOnly:0 RuntimeOnly:0 HLODRelevant:1 ListedInSceneOutliner:1 IsMainWorldOnly:0 FolderPath:Props
 |   |   |- [+] [ 27]
 |   |   |   |- Guid:558DF3DC41A990AE6AA5ADAE0809E6F8 BaseClass: NativeClass:/Script/Engine.StaticMeshActor Name:SM_Fireplace_Hearth_UAID_E88088BA760EF9B301_2032661027 Label:SM_Fireplace_Hearth SpatiallyLoaded:1 Bounds:IsValid=true, Min=(X=-123.818 Y=-505.057 Z=0.000), Max=(X=117.103 Y=-308.034 Z=161.648) RuntimeGrid:None EditorOnly:0 RuntimeOnly:0 HLODRelevant:1 ListedInSceneOutliner:1 IsMainWorldOnly:0 FolderPath:Structures
 |   |   |- [+] [ 28]
 |   |   |   |- Guid:55A74BB949D38B31571CDD943615EFD0 BaseClass: NativeClass:/Script/Engine.StaticMeshActor Name:SM_Book_B_UAID_E88088BA760EF9B301_2032685072 Label:SM_Book_B SpatiallyLoaded:1 Bounds:IsValid=true, Min=(X=-159.634 Y=-403.731 Z=122.400), Max=(X=-78.630 Y=-322.368 Z=132.550) RuntimeGrid:None EditorOnly:0 RuntimeOnly:0 HLODRelevant:1 ListedInSceneOutliner:1 IsMainWorldOnly:0 FolderPath:Props
 |   |   |- [+] [ 29]
 |   |   |   |- Guid:5DFDDC8141B4138564C2AFA8DADEAC39 BaseClass: NativeClass:/Script/Engine.PostProcessVolume Name:PostProcessVolume_UAID_E88088BA760EF6B301_1461463484 Label:PostProcessVolume2 SpatiallyLoaded:0 Bounds:IsValid=true, Min=(X=130.000 Y=2580.000 Z=50.000), Max=(X=330.000 Y=2780.000 Z=250.000) RuntimeGrid:None EditorOnly:0 RuntimeOnly:0 HLODRelevant:0 ListedInSceneOutliner:1 IsMainWorldOnly:0
 |   |   |- [+] [ 30]
 |   |   |   |- Guid:5FE7584649BB6F09265329A6C57CFD0D BaseClass: NativeClass:/Script/Engine.VolumetricCloud Name:VolumetricCloud_0 Label:VolumetricCloud SpatiallyLoaded:0 Bounds:IsValid=true, Min=(X=0.000 Y=0.000 Z=820.000), Max=(X=0.000 Y=0.000 Z=820.000) RuntimeGrid:None EditorOnly:0 RuntimeOnly:0 HLODRelevant:0 ListedInSceneOutliner:1 IsMainWorldOnly:0 FolderPath:Lighting FolderGuid:0BA5F0A04EADB18E70D5B180D08FA34B
 |   |   |- [+] [ 31]
 |   |   |   |- Guid:60B8A93A4256687197986EB835D50561 BaseClass: NativeClass:/Script/Engine.StaticMeshActor Name:SM_Office_Door_UAID_E88088BA760EF9B301_2032669037 Label:SM_Office_Door SpatiallyLoaded:1 Bounds:IsValid=true, Min=(X=-351.633 Y=-635.017 Z=0.000), Max=(X=-165.861 Y=-433.912 Z=392.929) RuntimeGrid:None EditorOnly:0 RuntimeOnly:0 HLODRelevant:1 ListedInSceneOutliner:1 IsMainWorldOnly:0 FolderPath:Structures
 |   |   |- [+] [ 32]
 |   |   |   |- Guid:61391D344900612A77DFC3BA3E354907 BaseClass: NativeClass:/Script/Engine.ExponentialHeightFog Name:ExponentialHeightFog_0 Label:ExponentialHeightFog SpatiallyLoaded:0 Bounds:IsValid=true, Min=(X=-5600.000 Y=-50.000 Z=-6850.000), Max=(X=-5600.000 Y=-50.000 Z=-6850.000) RuntimeGrid:None EditorOnly:0 RuntimeOnly:0 HLODRelevant:0 ListedInSceneOutliner:1 IsMainWorldOnly:0 FolderPath:Lighting FolderGuid:0BA5F0A04EADB18E70D5B180D08FA34B
 |   |   |- [+] [ 33]
 |   |   |   |- Guid:61532A0545B7CE1EF3C5BEA2C06F1557 BaseClass: NativeClass:/Script/Engine.StaticMeshActor Name:SM_Office_Ceiling_UAID_E88088BA760EF9B301_2032668035 Label:SM_Office_Ceiling SpatiallyLoaded:1 Bounds:IsValid=true, Min=(X=-432.276 Y=-518.914 Z=438.824), Max=(X=452.898 Y=468.888 Z=444.697) RuntimeGrid:None EditorOnly:0 RuntimeOnly:0 HLODRelevant:1 ListedInSceneOutliner:1 IsMainWorldOnly:0 FolderPath:Structures
 |   |   |- [+] [ 34]
 |   |   |   |- Guid:698C1E8744B4F631BAB15AAE3A39ED26 BaseClass: NativeClass:/Script/Engine.StaticMeshActor Name:SM_Vhs_Tapes2_UAID_E88088BA760EF9B301_2032682067 Label:SM_Vhs_Tapes2 SpatiallyLoaded:1 Bounds:IsValid=true, Min=(X=318.743 Y=202.771 Z=192.644), Max=(X=358.178 Y=231.388 Z=204.131) RuntimeGrid:None EditorOnly:0 RuntimeOnly:0 HLODRelevant:1 ListedInSceneOutliner:1 IsMainWorldOnly:0 FolderPath:Props
 |   |   |- [+] [ 35]
 |   |   |   |- Guid:69A381844C67094EFB4150AE15781FE2 BaseClass: NativeClass:/Script/Engine.StaticMeshActor Name:SM_Box_A_UAID_E88088BA760EF9B301_2032677055 Label:SM_Box_A SpatiallyLoaded:1 Bounds:IsValid=true, Min=(X=312.593 Y=327.357 Z=112.391), Max=(X=369.762 Y=405.258 Z=157.174) RuntimeGrid:None EditorOnly:0 RuntimeOnly:0 HLODRelevant:1 ListedInSceneOutliner:1 IsMainWorldOnly:0 FolderPath:Props
 |   |   |- [+] [ 36]
 |   |   |   |- Guid:6FEFB3BD4EB37B849EF0D4AC80F83855 BaseClass: NativeClass:/Script/Engine.WorldDataLayers Name:WorldDataLayers Label:WorldDataLayers SpatiallyLoaded:0 Bounds:IsValid=true, Min=(X=0.000 Y=0.000 Z=0.000), Max=(X=0.000 Y=0.000 Z=0.000) RuntimeGrid:None EditorOnly:0 RuntimeOnly:0 HLODRelevant:0 ListedInSceneOutliner:1 IsMainWorldOnly:1
 |   |   |- [+] [ 37]
 |   |   |   |- Guid:7A10325F41DB0F86D95608BF4D52EF2F BaseClass: NativeClass:/Script/Engine.StaticMeshActor Name:SM_Office_Wall_C_UAID_E88088BA760EF9B301_2032671042 Label:SM_Office_Wall_C SpatiallyLoaded:1 Bounds:IsValid=true, Min=(X=-408.673 Y=-445.654 Z=-0.103), Max=(X=402.151 Y=-386.730 Z=444.697) RuntimeGrid:None EditorOnly:0 RuntimeOnly:0 HLODRelevant:1 ListedInSceneOutliner:1 IsMainWorldOnly:0 FolderPath:Structures
 |   |   |- [+] [ 38]
 |   |   |   |- Guid:7DF2210040125DADB6034D9641D3616A BaseClass: NativeClass:/Script/Engine.StaticMeshActor Name:SM_Tv_UAID_E88088BA760EF9B301_2032675050 Label:SM_Tv SpatiallyLoaded:1 Bounds:IsValid=true, Min=(X=304.966 Y=166.328 Z=112.519), Max=(X=384.368 Y=262.119 Z=181.084) RuntimeGrid:None EditorOnly:0 RuntimeOnly:0 HLODRelevant:1 ListedInSceneOutliner:1 IsMainWorldOnly:0 FolderPath:Props
 |   |   |- [+] [ 39]
 |   |   |   |- Guid:8424F0F646DD457295343486F4847D78 BaseClass: NativeClass:/Script/Engine.StaticMeshActor Name:SM_Hallway_Wall_B_UAID_E88088BA760EFAB301_1935975260 Label:SM_Hallway_Wall_B2 SpatiallyLoaded:1 Bounds:IsValid=true, Min=(X=-624.498 Y=-1312.151 Z=-0.103), Max=(X=-377.585 Y=-501.622 Z=444.697) RuntimeGrid:None EditorOnly:0 RuntimeOnly:0 HLODRelevant:1 ListedInSceneOutliner:1 IsMainWorldOnly:0 FolderPath:Structures FolderGuid:3B07BE974A2E759308960E8EB8C29785
 |   |   |- [+] [ 40]
 |   |   |   |- Guid:84D455214AF14B7396C406AD43AF6647 BaseClass: NativeClass:/Script/Engine.StaticMeshActor Name:SM_Ashtray_UAID_E88088BA760EF9B301_2032682063 Label:SM_Ashtray SpatiallyLoaded:1 Bounds:IsValid=true, Min=(X=-281.187 Y=-415.159 Z=125.702), Max=(X=-247.677 Y=-379.450 Z=135.667) RuntimeGrid:None EditorOnly:0 RuntimeOnly:0 HLODRelevant:1 ListedInSceneOutliner:1 IsMainWorldOnly:0 FolderPath:Props
 |   |   |- [+] [ 41]
 |   |   |   |- Guid:862156B949B47A469F2D549A2AB330C0 BaseClass: NativeClass:/Script/Engine.PointLight Name:PointLight_UAID_E88088BA760EF7B301_1940368663 Label:PointLight2 SpatiallyLoaded:1 Bounds:IsValid=true, Min=(X=-960.000 Y=-1060.000 Z=-570.000), Max=(X=1040.000 Y=940.000 Z=1430.000) RuntimeGrid:None EditorOnly:0 RuntimeOnly:0 HLODRelevant:0 ListedInSceneOutliner:1 IsMainWorldOnly:0
 |   |   |- [+] [ 42]
 |   |   |   |- Guid:8AF1E7024AF166BAB663AD9CC4E17CD0 BaseClass: NativeClass:/Script/Engine.StaticMeshActor Name:SM_Hallway_Wall_A_UAID_E88088BA760EF9B301_2032666032 Label:SM_Hallway_Wall_A SpatiallyLoaded:1 Bounds:IsValid=true, Min=(X=-408.967 Y=-917.699 Z=-0.103), Max=(X=401.734 Y=-518.914 Z=444.697) RuntimeGrid:None EditorOnly:0 RuntimeOnly:0 HLODRelevant:1 ListedInSceneOutliner:1 IsMainWorldOnly:0 FolderPath:Structures
 |   |   |- [+] [ 43]
 |   |   |   |- Guid:936D71F649B96B1EAF4BC6B748986AE4 BaseClass: NativeClass:/Script/Engine.StaticMeshActor Name:SM_Remote_UAID_E88088BA760EF9B301_2032679060 Label:SM_Remote SpatiallyLoaded:1 Bounds:IsValid=true, Min=(X=104.840 Y=197.731 Z=121.906), Max=(X=136.812 Y=219.705 Z=125.468) RuntimeGrid:None EditorOnly:0 RuntimeOnly:0 HLODRelevant:1 ListedInSceneOutliner:1 IsMainWorldOnly:0 FolderPath:Props
 |   |   |- [+] [ 44]
 |   |   |   |- Guid:96CC502A4BDAD0A5E54884B3D7B5408A BaseClass: NativeClass:/Script/Engine.StaticMeshActor Name:SM_Bookcase_UAID_E88088BA760EF9B301_2032676052 Label:SM_Bookcase SpatiallyLoaded:1 Bounds:IsValid=true, Min=(X=-396.322 Y=228.854 Z=0.000), Max=(X=-325.026 Y=415.378 Z=362.785) RuntimeGrid:None EditorOnly:0 RuntimeOnly:0 HLODRelevant:1 ListedInSceneOutliner:1 IsMainWorldOnly:0 FolderPath:Props
 |   |   |- [+] [ 45]
 |   |   |   |- Guid:A167C1204F6B6871DBF1CFA1036989BF BaseClass: NativeClass:/Script/Engine.StaticMeshActor Name:SM_Box_B_UAID_E88088BA760EF9B301_2032677056 Label:SM_Box_B SpatiallyLoaded:1 Bounds:IsValid=true, Min=(X=223.753 Y=346.477 Z=-0.567), Max=(X=298.912 Y=456.090 Z=62.931) RuntimeGrid:None EditorOnly:0 RuntimeOnly:0 HLODRelevant:1 ListedInSceneOutliner:1 IsMainWorldOnly:0 FolderPath:Props
 |   |   |- [+] [ 46]
 |   |   |   |- Guid:A354B1B24E617A525DC6B48CCDE2417E BaseClass: NativeClass:/Script/Engine.PlayerStart Name:PlayerStart_0 Label:PlayerStart SpatiallyLoaded:0 Bounds:IsValid=true, Min=(X=10.000 Y=280.000 Z=60.013), Max=(X=90.000 Y=360.000 Z=244.013) RuntimeGrid:None EditorOnly:0 RuntimeOnly:0 HLODRelevant:0 ListedInSceneOutliner:1 IsMainWorldOnly:0
 |   |   |- [+] [ 47]
 |   |   |   |- Guid:A441CCCD407B2D87B9D1A2A4F85D8B3D BaseClass: NativeClass:/Script/Engine.StaticMeshActor Name:SM_Wall_Clock_UAID_E88088BA760EF9B301_2032682064 Label:SM_Wall_Clock SpatiallyLoaded:1 Bounds:IsValid=true, Min=(X=-409.047 Y=-1.560 Z=308.489), Max=(X=-399.871 Y=55.518 Z=365.434) RuntimeGrid:None EditorOnly:0 RuntimeOnly:0 HLODRelevant:1 ListedInSceneOutliner:1 IsMainWorldOnly:0 FolderPath:Props
 |   |   |- [+] [ 48]
 |   |   |   |- Guid:A9D12CEB40ECCADE0032C78E510BD46A BaseClass: NativeClass:/Script/Engine.StaticMeshActor Name:SM_Vhs_Tapes_UAID_E88088BA760EF9B301_2032677054 Label:SM_Vhs_Tapes SpatiallyLoaded:1 Bounds:IsValid=true, Min=(X=304.310 Y=269.181 Z=112.273), Max=(X=353.009 Y=315.959 Z=123.761) RuntimeGrid:None EditorOnly:0 RuntimeOnly:0 HLODRelevant:1 ListedInSceneOutliner:1 IsMainWorldOnly:0 FolderPath:Props
 |   |   |- [+] [ 49]
 |   |   |   |- Guid:AD584DC145AE358E34ED5297F3C55A5C BaseClass: NativeClass:/Script/Engine.StaticMeshActor Name:SM_Office_Wall_D_UAID_E88088BA760EF9B301_2032672043 Label:SM_Office_Wall_D SpatiallyLoaded:1 Bounds:IsValid=true, Min=(X=392.037 Y=-445.408 Z=-0.103), Max=(X=425.018 Y=445.407 Z=444.697) RuntimeGrid:None EditorOnly:0 RuntimeOnly:0 HLODRelevant:1 ListedInSceneOutliner:1 IsMainWorldOnly:0 FolderPath:Structures
 |   |   |- [+] [ 50]
 |   |   |   |- Guid:B651F6CA4999AF9E4355018047CC5E8A BaseClass: NativeClass:/Script/Engine.StaticMeshActor Name:SM_Office_Pocket_Doors_UAID_E88088BA760EF9B301_2032670039 Label:SM_Office_Pocket_Doors SpatiallyLoaded:1 Bounds:IsValid=true, Min=(X=390.501 Y=-147.735 Z=-0.206), Max=(X=475.503 Y=147.661 Z=392.723) RuntimeGrid:None EditorOnly:0 RuntimeOnly:0 HLODRelevant:1 ListedInSceneOutliner:1 IsMainWorldOnly:0 FolderPath:Structures
 |   |   |- [+] [ 51]
 |   |   |   |- Guid:B87E862542BA4F59B3480F86CA4CE93F BaseClass: NativeClass:/Script/Engine.StaticMeshActor Name:SM_Papers2_UAID_E88088BA760EF9B301_2032679058 Label:SM_Papers2 SpatiallyLoaded:1 Bounds:IsValid=true, Min=(X=-208.988 Y=-414.981 Z=122.657), Max=(X=-163.341 Y=-354.776 Z=123.205) RuntimeGrid:None EditorOnly:0 RuntimeOnly:0 HLODRelevant:1 ListedInSceneOutliner:1 IsMainWorldOnly:0 FolderPath:Props
 |   |   |- [+] [ 52]
 |   |   |   |- Guid:B8AF41BF46227B08A4F7909AB725789E BaseClass: NativeClass:/Script/Engine.StaticMeshActor Name:SM_Chair_B2_UAID_E88088BA760EF9B301_2032687079 Label:SM_Chair_B3 SpatiallyLoaded:1 Bounds:IsValid=true, Min=(X=-359.903 Y=-412.683 Z=131.399), Max=(X=-245.798 Y=-302.666 Z=310.925) RuntimeGrid:None EditorOnly:0 RuntimeOnly:0 HLODRelevant:1 ListedInSceneOutliner:1 IsMainWorldOnly:0 FolderPath:Props
 |   |   |- [+] [ 53]
 |   |   |   |- Guid:BEA869C04E4E61451D6A5BBFDDF3C679 BaseClass:/Game/Scanned3DPeoplePack/RP_Character/rp_claudia_rigged_002_Mobile_ue4/Animations/Jumpscare.Jumpscare_C NativeClass:/Script/Engine.Actor Name:Jumpscare_C_UAID_E88088BA760EF2B301_1446502781 Label:Jumpscare SpatiallyLoaded:1 Bounds:IsValid=true, Min=(X=133.654 Y=-778.950 Z=2.616), Max=(X=220.452 Y=-680.788 Z=365.911) RuntimeGrid:None EditorOnly:0 RuntimeOnly:0 HLODRelevant:0 ListedInSceneOutliner:1 IsMainWorldOnly:0
 |   |   |- [+] [ 54]
 |   |   |   |- Guid:BEED77434723C438E665DC87B3BA8C95 BaseClass: NativeClass:/Script/Engine.StaticMeshActor Name:SM_Folders2_UAID_E88088BA760EF9B301_2032680062 Label:SM_Folders2 SpatiallyLoaded:1 Bounds:IsValid=true, Min=(X=-270.903 Y=-371.764 Z=121.906), Max=(X=-202.258 Y=-313.531 Z=125.201) RuntimeGrid:None EditorOnly:0 RuntimeOnly:0 HLODRelevant:1 ListedInSceneOutliner:1 IsMainWorldOnly:0 FolderPath:Props
 |   |   |- [+] [ 55]
 |   |   |   |- Guid:C0C56B9644AE3D40CAFF6A878DB29844 BaseClass: NativeClass:/Script/Engine.StaticMeshActor Name:StaticMeshActor_UAID_A4AE111137DC5EFB00_2001720423 Label:SM_SkySphere SpatiallyLoaded:0 Bounds:IsValid=true, Min=(X=-1638400.000 Y=-1638400.000 Z=-1638400.000), Max=(X=1638400.000 Y=1638400.000 Z=1638400.000) RuntimeGrid:None EditorOnly:0 RuntimeOnly:0 HLODRelevant:1 ListedInSceneOutliner:1 IsMainWorldOnly:0 FolderPath:Lighting FolderGuid:0BA5F0A04EADB18E70D5B180D08FA34B
 |   |   |- [+] [ 56]
 |   |   |   |- Guid:C1A45F494E6227DA89936BB378F26082 BaseClass: NativeClass:/Script/Engine.StaticMeshActor Name:SM_Hallway_Wall_C_UAID_E88088BA760EF9B301_2032667034 Label:SM_Hallway_Wall_C SpatiallyLoaded:1 Bounds:IsValid=true, Min=(X=391.620 Y=-1033.297 Z=-0.103), Max=(X=808.526 Y=-518.914 Z=444.697) RuntimeGrid:None EditorOnly:0 RuntimeOnly:0 HLODRelevant:1 ListedInSceneOutliner:1 IsMainWorldOnly:0 FolderPath:Structures
 |   |   |- [+] [ 57]
 |   |   |   |- Guid:C22CE07C4B87D685137FDBBC10FC92C6 BaseClass: NativeClass:/Script/Engine.SkyAtmosphere Name:SkyAtmosphere_0 Label:SkyAtmosphere SpatiallyLoaded:0 Bounds:IsValid=true, Min=(X=0.000 Y=0.000 Z=1020.000), Max=(X=0.000 Y=0.000 Z=1020.000) RuntimeGrid:None EditorOnly:0 RuntimeOnly:0 HLODRelevant:0 ListedInSceneOutliner:1 IsMainWorldOnly:0 FolderPath:Lighting FolderGuid:0BA5F0A04EADB18E70D5B180D08FA34B
 |   |   |- [+] [ 58]
 |   |   |   |- Guid:CCBDEDAF4E57AEF8EB6507A0CE22B529 BaseClass: NativeClass:/Script/Engine.StaticMeshActor Name:SM_Folders5_UAID_E88088BA760EF9B301_2032682066 Label:SM_Folders5 SpatiallyLoaded:1 Bounds:IsValid=true, Min=(X=157.355 Y=-330.467 Z=-0.000), Max=(X=211.433 Y=-264.712 Z=4.808) RuntimeGrid:None EditorOnly:0 RuntimeOnly:0 HLODRelevant:1 ListedInSceneOutliner:1 IsMainWorldOnly:0 FolderPath:Props
 |   |   |- [+] [ 59]
 |   |   |   |- Guid:CE8D82634660FCDB3120E2B8D547C533 BaseClass: NativeClass:/Script/Engine.PostProcessVolume Name:PostProcessVolume_0 Label:PostProcessVolume SpatiallyLoaded:0 Bounds:IsValid=true, Min=(X=0.000 Y=0.000 Z=400.000), Max=(X=200.000 Y=200.000 Z=600.000) RuntimeGrid:None EditorOnly:0 RuntimeOnly:0 HLODRelevant:0 ListedInSceneOutliner:1 IsMainWorldOnly:0 FolderPath:Lighting FolderGuid:0BA5F0A04EADB18E70D5B180D08FA34B
 |   |   |- [+] [ 60]
 |   |   |   |- Guid:D4D8B10B449CA7DDEC813FBB63AAE2C4 BaseClass: NativeClass:/Script/Engine.StaticMeshActor Name:SM_Folders7_UAID_E88088BA760EF9B301_2032687078 Label:SM_Folders7 SpatiallyLoaded:1 Bounds:IsValid=true, Min=(X=-402.361 Y=313.628 Z=245.219), Max=(X=-331.858 Y=389.092 Z=247.980) RuntimeGrid:None EditorOnly:0 RuntimeOnly:0 HLODRelevant:1 ListedInSceneOutliner:1 IsMainWorldOnly:0 FolderPath:Props
 |   |   |- [+] [ 61]
 |   |   |   |- Guid:D55A53AF49DFDFEBE5770B93B9A4BE79 BaseClass: NativeClass:/Script/Engine.StaticMeshActor Name:SM_Hallway_Ceiling_UAID_E88088BA760EF9B301_2032664029 Label:SM_Hallway_Ceiling SpatiallyLoaded:1 Bounds:IsValid=true, Min=(X=-420.193 Y=-1041.298 Z=441.096), Max=(X=807.043 Y=-518.616 Z=465.596) RuntimeGrid:None EditorOnly:0 RuntimeOnly:0 HLODRelevant:1 ListedInSceneOutliner:1 IsMainWorldOnly:0 FolderPath:Structures
 |   |   |- [+] [ 62]
 |   |   |   |- Guid:DB1173FF41F2C9740904329DF98B50ED BaseClass: NativeClass:/Script/Engine.StaticMeshActor Name:SM_Box_C4_UAID_E88088BA760EF9B301_2032686075 Label:SM_Box_C4 SpatiallyLoaded:1 Bounds:IsValid=true, Min=(X=-383.279 Y=359.728 Z=362.309), Max=(X=-334.554 Y=409.840 Z=402.021) RuntimeGrid:None EditorOnly:0 RuntimeOnly:0 HLODRelevant:1 ListedInSceneOutliner:1 IsMainWorldOnly:0 FolderPath:Props
 |   |   |- [+] [ 63]
 |   |   |   |- Guid:DB9D5AF9447C57950F36D0AD9EB6E087 BaseClass: NativeClass:/Script/Engine.StaticMeshActor Name:SM_Side_Table_UAID_E88088BA760EF9B301_2032674049 Label:SM_Side_Table SpatiallyLoaded:1 Bounds:IsValid=true, Min=(X=303.354 Y=164.928 Z=-0.314), Max=(X=393.099 Y=421.237 Z=112.601) RuntimeGrid:None EditorOnly:0 RuntimeOnly:0 HLODRelevant:1 ListedInSceneOutliner:1 IsMainWorldOnly:0 FolderPath:Props
 |   |   |- [+] [ 64]
 |   |   |   |- Guid:DF49FB0F4F7D6C088C3EC4AE02D84505 BaseClass: NativeClass:/Script/Engine.StaticMeshActor Name:SM_Office_Wall_A_UAID_E88088BA760EF9B301_2032670040 Label:SM_Office_Wall_A SpatiallyLoaded:1 Bounds:IsValid=true, Min=(X=-408.795 Y=435.293 Z=-0.103), Max=(X=402.152 Y=445.580 Z=444.697) RuntimeGrid:None EditorOnly:0 RuntimeOnly:0 HLODRelevant:1 ListedInSceneOutliner:1 IsMainWorldOnly:0 FolderPath:Structures
 |   |   |- [+] [ 65]
 |   |   |   |- Guid:E28E96DE4236E844EBBAB084174FC3D6 BaseClass: NativeClass:/Script/Engine.StaticMeshActor Name:SM_Hallway_Wall_C_UAID_E88088BA760EFAB301_1846548258 Label:SM_Hallway_Wall_C2 SpatiallyLoaded:1 Bounds:IsValid=true, Min=(X=391.620 Y=-1033.297 Z=-0.103), Max=(X=808.526 Y=-518.914 Z=444.697) RuntimeGrid:None EditorOnly:0 RuntimeOnly:0 HLODRelevant:1 ListedInSceneOutliner:1 IsMainWorldOnly:0 FolderPath:Structures FolderGuid:3B07BE974A2E759308960E8EB8C29785
 |   |   |- [+] [ 66]
 |   |   |   |- Guid:E4032A174CA43A0912F10E9D96FB5245 BaseClass: NativeClass:/Script/Engine.TriggerBox Name:TriggerBox_UAID_E88088BA760EF2B301_2131799775 Label:TriggerBox SpatiallyLoaded:1 Bounds:IsValid=true, Min=(X=-342.500 Y=-91.250 Z=81.250), Max=(X=-17.500 Y=191.250 Z=238.750) RuntimeGrid:None EditorOnly:0 RuntimeOnly:0 HLODRelevant:0 ListedInSceneOutliner:1 IsMainWorldOnly:0
 |   |   |- [+] [ 67]
 |   |   |   |- Guid:E5320C1B4FD9764CE7B54D8487AEC613 BaseClass: NativeClass:/Script/Engine.SkyLight Name:SkyLight_0 Label:SkyLight SpatiallyLoaded:0 Bounds:IsValid=true, Min=(X=0.000 Y=0.000 Z=690.000), Max=(X=0.000 Y=0.000 Z=690.000) RuntimeGrid:None EditorOnly:0 RuntimeOnly:0 HLODRelevant:0 ListedInSceneOutliner:1 IsMainWorldOnly:0 FolderPath:Lighting FolderGuid:0BA5F0A04EADB18E70D5B180D08FA34B
 |   |   |- [+] [ 68]
 |   |   |   |- Guid:E96AD3A8418950F7848177B163CB85E0 BaseClass: NativeClass:/Script/Engine.StaticMeshActor Name:SM_Office_Floor_UAID_E88088BA760EF9B301_2032669038 Label:SM_Office_Floor SpatiallyLoaded:1 Bounds:IsValid=true, Min=(X=-432.276 Y=-518.914 Z=-0.000), Max=(X=452.898 Y=468.888 Z=0.000) RuntimeGrid:None EditorOnly:0 RuntimeOnly:0 HLODRelevant:1 ListedInSceneOutliner:1 IsMainWorldOnly:0 FolderPath:Structures
 |   |   |- [+] [ 69]
 |   |   |   |- Guid:F0413EEC4D0A08A49CC6BEB626BD282C BaseClass: NativeClass:/Script/Engine.StaticMeshActor Name:SM_Office_Window_C_UAID_E88088BA760EF9B301_2032673046 Label:SM_Office_Window_C SpatiallyLoaded:1 Bounds:IsValid=true, Min=(X=-445.593 Y=-246.201 Z=0.000), Max=(X=-397.145 Y=-49.269 Z=409.599) RuntimeGrid:None EditorOnly:0 RuntimeOnly:0 HLODRelevant:1 ListedInSceneOutliner:1 IsMainWorldOnly:0 FolderPath:Structures
 |   |   |- [+] [ 70]
 |   |   |   |- Guid:F1D5CD564077FB495BED289405DB1DE6 BaseClass: NativeClass:/Script/Engine.StaticMeshActor Name:SM_Folders_UAID_E88088BA760EF9B301_2032684069 Label:SM_Folders SpatiallyLoaded:1 Bounds:IsValid=true, Min=(X=26.854 Y=-378.603 Z=3.049), Max=(X=82.812 Y=-311.518 Z=4.811) RuntimeGrid:None EditorOnly:0 RuntimeOnly:0 HLODRelevant:1 ListedInSceneOutliner:1 IsMainWorldOnly:0 FolderPath:Props
 |   |   |- [+] [ 71]
 |   |   |   |- Guid:F80621C9446867154938FE81375207DA BaseClass: NativeClass:/Script/Engine.DirectionalLight Name:DirectionalLight_1 Label:DirectionalLight SpatiallyLoaded:0 Bounds:IsValid=true, Min=(X=-4398046511104.000 Y=-4398046511104.000 Z=-4398046511104.000), Max=(X=4398046511104.000 Y=4398046511104.000 Z=4398046511104.000) RuntimeGrid:None EditorOnly:0 RuntimeOnly:0 HLODRelevant:0 ListedInSceneOutliner:1 IsMainWorldOnly:0 FolderPath:Lighting FolderGuid:0BA5F0A04EADB18E70D5B180D08FA34B
 |   |   |- [+] [ 72]
 |   |   |   |- Guid:FB7BABC94AB04652600C1C96C600C5D1 BaseClass: NativeClass:/Script/Engine.BlockingVolume Name:BlockingVolume_UAID_E88088BA760EFAB301_1227468257 Label:BlockingVolume SpatiallyLoaded:1 Bounds:IsValid=true, Min=(X=-760.000 Y=-1230.000 Z=-100.000), Max=(X=840.000 Y=770.000 Z=0.000) RuntimeGrid:None EditorOnly:0 RuntimeOnly:0 HLODRelevant:0 ListedInSceneOutliner:1 IsMainWorldOnly:0 FolderPath:RenderFX FolderGuid:397A8BD249422D8C3C81748C5D35A3FD
 |- ContainerInstances:
 |- [+] MainContainer:
 |   |-        ID: 00000000000000000000000000000000
 |   |-  ParentID: 00000000000000000000000000000000
 |   |-    Bounds: IsValid=false, Min=(X=0.000 Y=0.000 Z=0.000), Max=(X=0.000 Y=0.000 Z=0.000)
 |   |- Transform: 0.000000,0.000000,0.000000|0.000000,0.000000,-0.000000|1.000000,1.000000,1.000000
 |   |- Container: /Game/FirstPerson/Maps/FirstPersonMap
----------------------------------------------------------------------------------------------------------------
FirstPersonMap - Persistent Level
----------------------------------------------------------------------------------------------------------------
[+] Content of FirstPersonMap Persistent Level
 |- Always loaded Actor Count: 80 
 |- Actor Path: /Game/FirstPerson/Maps/FirstPersonMap.FirstPersonMap:PersistentLevel.AbstractNavData-Default
 |- Actor Package: /Game/FirstPerson/Maps/FirstPersonMap
 |- Actor Path: /Game/FirstPerson/Maps/FirstPersonMap.FirstPersonMap:PersistentLevel.AmbientSound_UAID_E88088BA760EF4B301_2104260131
 |- Actor Package: /Game/__ExternalActors__/FirstPerson/Maps/FirstPersonMap/C/HC/A55PGGJ7B97OG67C9GHFZD
 |- Actor Path: /Game/FirstPerson/Maps/FirstPersonMap.FirstPersonMap:PersistentLevel.BlockingVolume_UAID_E88088BA760EFAB301_1227468257
 |- Actor Package: /Game/__ExternalActors__/FirstPerson/Maps/FirstPersonMap/D/YC/M873BQ9ILHQ8EPSC7YAO0W
 |- Actor Path: /Game/FirstPerson/Maps/FirstPersonMap.FirstPersonMap:PersistentLevel.Brush_0
 |- Actor Package: /Game/FirstPerson/Maps/FirstPersonMap
 |- Actor Path: /Game/FirstPerson/Maps/FirstPersonMap.FirstPersonMap:PersistentLevel.DefaultPhysicsVolume_0
 |- Actor Package: /Game/FirstPerson/Maps/FirstPersonMap
 |- Actor Path: /Game/FirstPerson/Maps/FirstPersonMap.FirstPersonMap:PersistentLevel.DirectionalLight_1
 |- Actor Package: /Game/__ExternalActors__/FirstPerson/Maps/FirstPersonMap/0/WB/V4ALNTJYOVWM8BU452CKV5
 |- Actor Path: /Game/FirstPerson/Maps/FirstPersonMap.FirstPersonMap:PersistentLevel.ExponentialHeightFog_0
 |- Actor Package: /Game/__ExternalActors__/FirstPerson/Maps/FirstPersonMap/0/CL/381LM03PFI8AF9NED1SEV2
 |- Actor Path: /Game/FirstPerson/Maps/FirstPersonMap.FirstPersonMap:PersistentLevel.FirstPersonMap_C_0
 |- Actor Package: /Game/FirstPerson/Maps/FirstPersonMap
 |- Actor Path: /Game/FirstPerson/Maps/FirstPersonMap.FirstPersonMap:PersistentLevel.GameplayDebuggerPlayerManager_0
 |- Actor Package: /Game/FirstPerson/Maps/FirstPersonMap
 |- Actor Path: /Game/FirstPerson/Maps/FirstPersonMap.FirstPersonMap:PersistentLevel.Jumpscare_C_UAID_E88088BA760EF2B301_1446502781
 |- Actor Package: /Game/__ExternalActors__/FirstPerson/Maps/FirstPersonMap/6/5B/DT73FQORFYDZPBD2C3JENV
 |- Actor Path: /Game/FirstPerson/Maps/FirstPersonMap.FirstPersonMap:PersistentLevel.PlayerStart_0
 |- Actor Package: /Game/__ExternalActors__/FirstPerson/Maps/FirstPersonMap/8/Z7/W1SXRCM1KAKBJOIZDLHZ47
 |- Actor Path: /Game/FirstPerson/Maps/FirstPersonMap.FirstPersonMap:PersistentLevel.PointLight_UAID_E88088BA760EF7B301_1898775662
 |- Actor Package: /Game/__ExternalActors__/FirstPerson/Maps/FirstPersonMap/D/N5/DZDT7ZC9WTQ5XFUFYTU02V
 |- Actor Path: /Game/FirstPerson/Maps/FirstPersonMap.FirstPersonMap:PersistentLevel.PointLight_UAID_E88088BA760EF7B301_1940368663
 |- Actor Package: /Game/__ExternalActors__/FirstPerson/Maps/FirstPersonMap/8/8L/T5O3KHUYKB0IC65LBWIQET
 |- Actor Path: /Game/FirstPerson/Maps/FirstPersonMap.FirstPersonMap:PersistentLevel.PostProcessVolume_0
 |- Actor Package: /Game/__ExternalActors__/FirstPerson/Maps/FirstPersonMap/E/MX/R1GV431P5FDO08OFULRA01
 |- Actor Path: /Game/FirstPerson/Maps/FirstPersonMap.FirstPersonMap:PersistentLevel.PostProcessVolume_UAID_E88088BA760EF6B301_1461463484
 |- Actor Package: /Game/__ExternalActors__/FirstPerson/Maps/FirstPersonMap/9/KW/36A4M7DR8OPF29QVYAW98N
 |- Actor Path: /Game/FirstPerson/Maps/FirstPersonMap.FirstPersonMap:PersistentLevel.SkeletalMeshActor_UAID_E88088BA760E5AB301_1817299027
 |- Actor Package: /Game/__ExternalActors__/FirstPerson/Maps/FirstPersonMap/6/2D/P4QX75Q5OF0E2YHNKGA8I2
 |- Actor Path: /Game/FirstPerson/Maps/FirstPersonMap.FirstPersonMap:PersistentLevel.SkyAtmosphere_0
 |- Actor Package: /Game/__ExternalActors__/FirstPerson/Maps/FirstPersonMap/C/VO/VMN4G7K3NKKV6F8HTPHHDB
 |- Actor Path: /Game/FirstPerson/Maps/FirstPersonMap.FirstPersonMap:PersistentLevel.SkyLight_0
 |- Actor Package: /Game/__ExternalActors__/FirstPerson/Maps/FirstPersonMap/6/0Z/5RQIHCZ9W3UXRGL4LTLQAK
 |- Actor Path: /Game/FirstPerson/Maps/FirstPersonMap.FirstPersonMap:PersistentLevel.SM_Ashtray_UAID_E88088BA760EF9B301_2032682063
 |- Actor Package: /Game/__ExternalActors__/FirstPerson/Maps/FirstPersonMap/0/8H/I5JV3ZV2911EGAFL7EHZ6O
 |- Actor Path: /Game/FirstPerson/Maps/FirstPersonMap.FirstPersonMap:PersistentLevel.SM_Book_A2_UAID_E88088BA760EF9B301_2032687077
 |- Actor Package: /Game/__ExternalActors__/FirstPerson/Maps/FirstPersonMap/C/A6/XWSEWT0ETRCVCQJYIW99ZB
 |- Actor Path: /Game/FirstPerson/Maps/FirstPersonMap.FirstPersonMap:PersistentLevel.SM_Book_B_UAID_E88088BA760EF9B301_2032685072
 |- Actor Package: /Game/__ExternalActors__/FirstPerson/Maps/FirstPersonMap/7/H7/T0F1LYNUO98Y7DLBK61F4F
 |- Actor Path: /Game/FirstPerson/Maps/FirstPersonMap.FirstPersonMap:PersistentLevel.SM_Book_C_UAID_E88088BA760EF9B301_2032686076
 |- Actor Package: /Game/__ExternalActors__/FirstPerson/Maps/FirstPersonMap/7/O5/0RTWCR6BCD29XSOWXJ16QK
 |- Actor Path: /Game/FirstPerson/Maps/FirstPersonMap.FirstPersonMap:PersistentLevel.SM_Bookcase_UAID_E88088BA760EF9B301_2032676052
 |- Actor Package: /Game/__ExternalActors__/FirstPerson/Maps/FirstPersonMap/B/ST/9QDBZ61T4X7343RUZTB8UM
 |- Actor Path: /Game/FirstPerson/Maps/FirstPersonMap.FirstPersonMap:PersistentLevel.SM_Box_A_UAID_E88088BA760EF9B301_2032677055
 |- Actor Package: /Game/__ExternalActors__/FirstPerson/Maps/FirstPersonMap/3/H6/NDN09H83K17HFJF4976JL4
 |- Actor Path: /Game/FirstPerson/Maps/FirstPersonMap.FirstPersonMap:PersistentLevel.SM_Box_B_UAID_E88088BA760EF9B301_2032677056
 |- Actor Package: /Game/__ExternalActors__/FirstPerson/Maps/FirstPersonMap/6/3B/4RRQG7NAZFXR6G32XER0B7
 |- Actor Path: /Game/FirstPerson/Maps/FirstPersonMap.FirstPersonMap:PersistentLevel.SM_Box_C4_UAID_E88088BA760EF9B301_2032686075
 |- Actor Package: /Game/__ExternalActors__/FirstPerson/Maps/FirstPersonMap/A/Y6/I88E7VYR165IH7OA8FEG8I
 |- Actor Path: /Game/FirstPerson/Maps/FirstPersonMap.FirstPersonMap:PersistentLevel.SM_Bulletin_Board_A_UAID_E88088BA760EF9B301_2032684068
 |- Actor Package: /Game/__ExternalActors__/FirstPerson/Maps/FirstPersonMap/3/GZ/E66883TUQRNBDRIUGIU075
 |- Actor Path: /Game/FirstPerson/Maps/FirstPersonMap.FirstPersonMap:PersistentLevel.SM_Bulletin_Board_B_UAID_E88088BA760EF9B301_2032676053
 |- Actor Package: /Game/__ExternalActors__/FirstPerson/Maps/FirstPersonMap/E/KD/5R7H6VUZM50BLG95HZSFHL
 |- Actor Path: /Game/FirstPerson/Maps/FirstPersonMap.FirstPersonMap:PersistentLevel.SM_Calender_UAID_E88088BA760EF9B301_2032682065
 |- Actor Package: /Game/__ExternalActors__/FirstPerson/Maps/FirstPersonMap/7/JJ/BXNHF2L3I5KLJMHZQ7VNHT
 |- Actor Path: /Game/FirstPerson/Maps/FirstPersonMap.FirstPersonMap:PersistentLevel.SM_Chair_B2_UAID_E88088BA760EF9B301_2032687079
 |- Actor Package: /Game/__ExternalActors__/FirstPerson/Maps/FirstPersonMap/8/W9/8UMZFY0EZDWH0BUABL82EW
 |- Actor Path: /Game/FirstPerson/Maps/FirstPersonMap.FirstPersonMap:PersistentLevel.SM_Cigarettes_UAID_E88088BA760EF9B301_2032685071
 |- Actor Package: /Game/__ExternalActors__/FirstPerson/Maps/FirstPersonMap/9/PS/XFVBJHL4ZWZ1COAG11OFZ9
 |- Actor Path: /Game/FirstPerson/Maps/FirstPersonMap.FirstPersonMap:PersistentLevel.SM_Desk_UAID_E88088BA760EF9B301_2032674047
 |- Actor Package: /Game/__ExternalActors__/FirstPerson/Maps/FirstPersonMap/0/NH/JV03JEVIFW826EYQSMCSBQ
 |- Actor Path: /Game/FirstPerson/Maps/FirstPersonMap.FirstPersonMap:PersistentLevel.SM_Fireplace_Hearth_UAID_E88088BA760EF9B301_2032661027
 |- Actor Package: /Game/__ExternalActors__/FirstPerson/Maps/FirstPersonMap/A/NB/HA5OIUUWZWNUV31CUFYJTF
 |- Actor Path: /Game/FirstPerson/Maps/FirstPersonMap.FirstPersonMap:PersistentLevel.SM_Fireplace_Mantel_UAID_E88088BA760EF9B301_2032663028
 |- Actor Package: /Game/__ExternalActors__/FirstPerson/Maps/FirstPersonMap/5/P2/LEFKBT0FT3UAR1RNM96QQE
 |- Actor Path: /Game/FirstPerson/Maps/FirstPersonMap.FirstPersonMap:PersistentLevel.SM_Folders2_UAID_E88088BA760EF9B301_2032680062
 |- Actor Package: /Game/__ExternalActors__/FirstPerson/Maps/FirstPersonMap/5/QR/CCWFX22OMZR7OOKJWA2H3F
 |- Actor Path: /Game/FirstPerson/Maps/FirstPersonMap.FirstPersonMap:PersistentLevel.SM_Folders5_UAID_E88088BA760EF9B301_2032682066
 |- Actor Package: /Game/__ExternalActors__/FirstPerson/Maps/FirstPersonMap/D/NZ/FVDPLHBWRKGY99C6KK7HGT
 |- Actor Path: /Game/FirstPerson/Maps/FirstPersonMap.FirstPersonMap:PersistentLevel.SM_Folders6_UAID_E88088BA760EF9B301_2032685074
 |- Actor Package: /Game/__ExternalActors__/FirstPerson/Maps/FirstPersonMap/B/VJ/75SP2P8W4N7A7NZ1DQM4Q5
 |- Actor Path: /Game/FirstPerson/Maps/FirstPersonMap.FirstPersonMap:PersistentLevel.SM_Folders7_UAID_E88088BA760EF9B301_2032687078
 |- Actor Package: /Game/__ExternalActors__/FirstPerson/Maps/FirstPersonMap/D/0Z/I10N9ODDYPAW5RTA55YVPE
 |- Actor Path: /Game/FirstPerson/Maps/FirstPersonMap.FirstPersonMap:PersistentLevel.SM_Folders_UAID_E88088BA760EF9B301_2032684069
 |- Actor Package: /Game/__ExternalActors__/FirstPerson/Maps/FirstPersonMap/4/NK/GFI758MNUXZPKGV85EFM9M
 |- Actor Path: /Game/FirstPerson/Maps/FirstPersonMap.FirstPersonMap:PersistentLevel.SM_Hallway_Ceiling_UAID_E88088BA760EF9B301_2032664029
 |- Actor Package: /Game/__ExternalActors__/FirstPerson/Maps/FirstPersonMap/5/RR/RPGYJX3DFBSML17WW0IVSV
 |- Actor Path: /Game/FirstPerson/Maps/FirstPersonMap.FirstPersonMap:PersistentLevel.SM_Hallway_Door_UAID_E88088BA760EF9B301_2032665030
 |- Actor Package: /Game/__ExternalActors__/FirstPerson/Maps/FirstPersonMap/F/18/8U5CZ88602WPI40IY9CSSK
 |- Actor Path: /Game/FirstPerson/Maps/FirstPersonMap.FirstPersonMap:PersistentLevel.SM_Hallway_Floor_UAID_E88088BA760EF9B301_2032665031
 |- Actor Package: /Game/__ExternalActors__/FirstPerson/Maps/FirstPersonMap/2/5M/T89SXTBNG0ZMSAMIUA4IS0
 |- Actor Path: /Game/FirstPerson/Maps/FirstPersonMap.FirstPersonMap:PersistentLevel.SM_Hallway_Wall_A_UAID_E88088BA760EF9B301_2032666032
 |- Actor Package: /Game/__ExternalActors__/FirstPerson/Maps/FirstPersonMap/5/R8/WO8W5CYVMIBI4TBYVBMHJE
 |- Actor Path: /Game/FirstPerson/Maps/FirstPersonMap.FirstPersonMap:PersistentLevel.SM_Hallway_Wall_B_UAID_E88088BA760EF9B301_2032667033
 |- Actor Package: /Game/__ExternalActors__/FirstPerson/Maps/FirstPersonMap/D/EM/0FSJ7SD1B4QYR5SO2Q4MNC
 |- Actor Path: /Game/FirstPerson/Maps/FirstPersonMap.FirstPersonMap:PersistentLevel.SM_Hallway_Wall_B_UAID_E88088BA760EFAB301_1935975260
 |- Actor Package: /Game/__ExternalActors__/FirstPerson/Maps/FirstPersonMap/A/QK/PNNMZT06DS9SKEPP234NMC
 |- Actor Path: /Game/FirstPerson/Maps/FirstPersonMap.FirstPersonMap:PersistentLevel.SM_Hallway_Wall_C_UAID_E88088BA760EF9B301_2032667034
 |- Actor Package: /Game/__ExternalActors__/FirstPerson/Maps/FirstPersonMap/3/WD/ZO2CR8SYRCGEH2EEUXYYDI
 |- Actor Path: /Game/FirstPerson/Maps/FirstPersonMap.FirstPersonMap:PersistentLevel.SM_Hallway_Wall_C_UAID_E88088BA760EFAB301_1846548258
 |- Actor Package: /Game/__ExternalActors__/FirstPerson/Maps/FirstPersonMap/C/69/HE0FNP0OWXLKZGB6V70YOB
 |- Actor Path: /Game/FirstPerson/Maps/FirstPersonMap.FirstPersonMap:PersistentLevel.SM_Note_Pad_UAID_E88088BA760EF9B301_2032679059
 |- Actor Package: /Game/__ExternalActors__/FirstPerson/Maps/FirstPersonMap/2/8N/H2KONWA9P6821125PCYUL5
 |- Actor Path: /Game/FirstPerson/Maps/FirstPersonMap.FirstPersonMap:PersistentLevel.SM_Notebook2_UAID_E88088BA760EF9B301_2032685073
 |- Actor Package: /Game/__ExternalActors__/FirstPerson/Maps/FirstPersonMap/2/TA/UFOETYIP5QWWLCQ7V6CQAB
 |- Actor Path: /Game/FirstPerson/Maps/FirstPersonMap.FirstPersonMap:PersistentLevel.SM_Notebook_UAID_E88088BA760EF9B301_2032680061
 |- Actor Package: /Game/__ExternalActors__/FirstPerson/Maps/FirstPersonMap/0/15/FV46FNTZRD1GC8A9IZFP00
 |- Actor Path: /Game/FirstPerson/Maps/FirstPersonMap.FirstPersonMap:PersistentLevel.SM_Office_Ceiling_Light_UAID_E88088BA760EF9B301_2032668036
 |- Actor Package: /Game/__ExternalActors__/FirstPerson/Maps/FirstPersonMap/3/5R/GTO8RQ9HF0DXMRMPC7IE1Y
 |- Actor Path: /Game/FirstPerson/Maps/FirstPersonMap.FirstPersonMap:PersistentLevel.SM_Office_Ceiling_UAID_E88088BA760EF9B301_2032668035
 |- Actor Package: /Game/__ExternalActors__/FirstPerson/Maps/FirstPersonMap/A/7C/EV57OSQEHYCFPPYFS5GS1F
 |- Actor Path: /Game/FirstPerson/Maps/FirstPersonMap.FirstPersonMap:PersistentLevel.SM_Office_Door_UAID_E88088BA760EF9B301_2032669037
 |- Actor Package: /Game/__ExternalActors__/FirstPerson/Maps/FirstPersonMap/2/LE/Z9OVHQ76BEGJYAKFCAZJ70
 |- Actor Path: /Game/FirstPerson/Maps/FirstPersonMap.FirstPersonMap:PersistentLevel.SM_Office_Floor_UAID_E88088BA760EF9B301_2032669038
 |- Actor Package: /Game/__ExternalActors__/FirstPerson/Maps/FirstPersonMap/0/4Z/XB9S9RSWP4TRLRO6UWM7LM
 |- Actor Path: /Game/FirstPerson/Maps/FirstPersonMap.FirstPersonMap:PersistentLevel.SM_Office_Pocket_Doors_UAID_E88088BA760EF9B301_2032670039
 |- Actor Package: /Game/__ExternalActors__/FirstPerson/Maps/FirstPersonMap/B/C5/LRNNU7AG7RMLS9E45FLR91
 |- Actor Path: /Game/FirstPerson/Maps/FirstPersonMap.FirstPersonMap:PersistentLevel.SM_Office_Wall_A_UAID_E88088BA760EF9B301_2032670040
 |- Actor Package: /Game/__ExternalActors__/FirstPerson/Maps/FirstPersonMap/4/GM/FZYBE3E2T5GA5CJ585DIM2
 |- Actor Path: /Game/FirstPerson/Maps/FirstPersonMap.FirstPersonMap:PersistentLevel.SM_Office_Wall_B_UAID_E88088BA760EF9B301_2032671041
 |- Actor Package: /Game/__ExternalActors__/FirstPerson/Maps/FirstPersonMap/7/Y2/N2LNXTE39L9NDYLO2TU1TN
 |- Actor Path: /Game/FirstPerson/Maps/FirstPersonMap.FirstPersonMap:PersistentLevel.SM_Office_Wall_C_UAID_E88088BA760EF9B301_2032671042
 |- Actor Package: /Game/__ExternalActors__/FirstPerson/Maps/FirstPersonMap/7/FR/J5U6H2QUCYFGEFCELHDINC
 |- Actor Path: /Game/FirstPerson/Maps/FirstPersonMap.FirstPersonMap:PersistentLevel.SM_Office_Wall_D_UAID_E88088BA760EF9B301_2032672043
 |- Actor Package: /Game/__ExternalActors__/FirstPerson/Maps/FirstPersonMap/7/Y0/XQIQCS07UCD5EH9HQM31L5
 |- Actor Path: /Game/FirstPerson/Maps/FirstPersonMap.FirstPersonMap:PersistentLevel.SM_Office_Window_A_UAID_E88088BA760EF9B301_2032672044
 |- Actor Package: /Game/__ExternalActors__/FirstPerson/Maps/FirstPersonMap/A/ZL/0YMTNFP9JRD33JCVJRBGNG
 |- Actor Path: /Game/FirstPerson/Maps/FirstPersonMap.FirstPersonMap:PersistentLevel.SM_Office_Window_B_UAID_E88088BA760EF9B301_2032673045
 |- Actor Package: /Game/__ExternalActors__/FirstPerson/Maps/FirstPersonMap/6/5W/FM4OKKNL4BQ7OPUH6YPRSX
 |- Actor Path: /Game/FirstPerson/Maps/FirstPersonMap.FirstPersonMap:PersistentLevel.SM_Office_Window_C_UAID_E88088BA760EF9B301_2032673046
 |- Actor Package: /Game/__ExternalActors__/FirstPerson/Maps/FirstPersonMap/2/QS/SWYMEHFZRRRZT46WRZD3MW
 |- Actor Path: /Game/FirstPerson/Maps/FirstPersonMap.FirstPersonMap:PersistentLevel.SM_Papers2_UAID_E88088BA760EF9B301_2032679058
 |- Actor Package: /Game/__ExternalActors__/FirstPerson/Maps/FirstPersonMap/0/7A/OWHQ1C6RMP03NW68IDB4I5
 |- Actor Path: /Game/FirstPerson/Maps/FirstPersonMap.FirstPersonMap:PersistentLevel.SM_Papers3_UAID_E88088BA760EF9B301_2032685070
 |- Actor Package: /Game/__ExternalActors__/FirstPerson/Maps/FirstPersonMap/9/T7/FVFRHMKF4VJDKVLP2YYVED
 |- Actor Path: /Game/FirstPerson/Maps/FirstPersonMap.FirstPersonMap:PersistentLevel.SM_Papers_UAID_E88088BA760EF9B301_2032679057
 |- Actor Package: /Game/__ExternalActors__/FirstPerson/Maps/FirstPersonMap/C/G0/8W899D62LNPJ8HEFKLPTJU
 |- Actor Path: /Game/FirstPerson/Maps/FirstPersonMap.FirstPersonMap:PersistentLevel.SM_Remote_UAID_E88088BA760EF9B301_2032679060
 |- Actor Package: /Game/__ExternalActors__/FirstPerson/Maps/FirstPersonMap/2/VA/3NC91WBYP1HXKLFAPCLE8A
 |- Actor Path: /Game/FirstPerson/Maps/FirstPersonMap.FirstPersonMap:PersistentLevel.SM_Side_Table_UAID_E88088BA760EF9B301_2032674049
 |- Actor Package: /Game/__ExternalActors__/FirstPerson/Maps/FirstPersonMap/C/T3/YN1OSOWEXXKCO7G3S7Q43U
 |- Actor Path: /Game/FirstPerson/Maps/FirstPersonMap.FirstPersonMap:PersistentLevel.SM_Standing_Lamp_UAID_E88088BA760EF9B301_2032674048
 |- Actor Package: /Game/__ExternalActors__/FirstPerson/Maps/FirstPersonMap/0/L6/WJOKCKVJHIZHPKKYK1AUA7
 |- Actor Path: /Game/FirstPerson/Maps/FirstPersonMap.FirstPersonMap:PersistentLevel.SM_Tv_UAID_E88088BA760EF9B301_2032675050
 |- Actor Package: /Game/__ExternalActors__/FirstPerson/Maps/FirstPersonMap/5/BF/JCDDTS3CGQJZPAUKK2RYQL
 |- Actor Path: /Game/FirstPerson/Maps/FirstPersonMap.FirstPersonMap:PersistentLevel.SM_Vcr_UAID_E88088BA760EF9B301_2032675051
 |- Actor Package: /Game/__ExternalActors__/FirstPerson/Maps/FirstPersonMap/E/6E/12JB051SWSWIESPWUDHD1Y
 |- Actor Path: /Game/FirstPerson/Maps/FirstPersonMap.FirstPersonMap:PersistentLevel.SM_Vhs_Tapes2_UAID_E88088BA760EF9B301_2032682067
 |- Actor Package: /Game/__ExternalActors__/FirstPerson/Maps/FirstPersonMap/9/2T/GPWB9Y93F3DKMJI7KO2ZTD
 |- Actor Path: /Game/FirstPerson/Maps/FirstPersonMap.FirstPersonMap:PersistentLevel.SM_Vhs_Tapes_UAID_E88088BA760EF9B301_2032677054
 |- Actor Package: /Game/__ExternalActors__/FirstPerson/Maps/FirstPersonMap/C/5A/HPILNJD54MAWDEW64MN99Q
 |- Actor Path: /Game/FirstPerson/Maps/FirstPersonMap.FirstPersonMap:PersistentLevel.SM_Wall_Clock_UAID_E88088BA760EF9B301_2032682064
 |- Actor Package: /Game/__ExternalActors__/FirstPerson/Maps/FirstPersonMap/7/ZX/9KXVMBX0WQ8NCDOUNIFQKX
 |- Actor Path: /Game/FirstPerson/Maps/FirstPersonMap.FirstPersonMap:PersistentLevel.StaticMeshActor_UAID_A4AE111137DC5EFB00_2001720423
 |- Actor Package: /Game/__ExternalActors__/FirstPerson/Maps/FirstPersonMap/C/ZU/PDQ0AB8RLNMVID876FD49G
 |- Actor Path: /Game/FirstPerson/Maps/FirstPersonMap.FirstPersonMap:PersistentLevel.TextRenderActor_1
 |- Actor Package: /Game/__ExternalActors__/FirstPerson/Maps/FirstPersonMap/1/RN/55P1SMQLAF7OK6300D5I8N
 |- Actor Path: /Game/FirstPerson/Maps/FirstPersonMap.FirstPersonMap:PersistentLevel.TriggerBox_UAID_E88088BA760EF2B301_2131799775
 |- Actor Package: /Game/__ExternalActors__/FirstPerson/Maps/FirstPersonMap/4/0I/E3MXNU738USI0WM9Q0BM3E
 |- Actor Path: /Game/FirstPerson/Maps/FirstPersonMap.FirstPersonMap:PersistentLevel.VolumetricCloud_0
 |- Actor Package: /Game/__ExternalActors__/FirstPerson/Maps/FirstPersonMap/0/GO/I8WEFD3RY9V3NVQLSU6QM4
 |- Actor Path: /Game/FirstPerson/Maps/FirstPersonMap.FirstPersonMap:PersistentLevel.WorldDataLayers
 |- Actor Package: /Game/__ExternalActors__/FirstPerson/Maps/FirstPersonMap/D/0W/E1FKEGVKGOLM7HGLQPCIPO
 |- Actor Path: /Game/FirstPerson/Maps/FirstPersonMap.FirstPersonMap:PersistentLevel.WorldInfo_0
 |- Actor Package: /Game/FirstPerson/Maps/FirstPersonMap
 |- Actor Path: /Game/FirstPerson/Maps/FirstPersonMap.FirstPersonMap:PersistentLevel.WorldPartitionMiniMap_0
 |- Actor Package: /Game/__ExternalActors__/FirstPerson/Maps/FirstPersonMap/4/CR/SRVPLA8UNZ8XIIP0E036DI

----------------------------------------------------------------------------------------------------------------
FirstPersonMap - Runtime Spatial Hash - Streaming Grid - MainGrid
----------------------------------------------------------------------------------------------------------------
            Origin: X=0.000 Y=0.000 Z=0.000
         Cell Size: 12800
      World Bounds: IsValid=false, Min=(X=0.000 Y=0.000 Z=0.000), Max=(X=0.000 Y=0.000 Z=0.000)
     Loading Range: 25600.00
Block Slow Loading: No
 ClientOnlyVisible: No
            Origin: X=0.000 Y=0.000 Z=0.000

[+] Grid Levels: 1
 |- Level  0: Cell Count    0 | Cell Size   12800 | Actor Count    0 (0.0%)

[+] Content of Grid Level 0

